Cisit_id,Invoice Date,Invoice Number,Customer Name,Item Price,Quantity,Item Name,Customer ID
1,2018-07-02,OTCINV412,Mary kurgat,500,1,Nipro / All types bloodlines,101000
2,2018-07-02,OTCINV412,Mary kurgat,450,1,Nipro Bicarbonate Catridge,101000
3,2018-07-02,OTCINV412,Mary kurgat,500,1,Nipro/ other  Acid Concentrate 5L,101000
4,2018-07-02,OTCINV412,Mary kurgat,1300,1,Nipro/All types Dialysers,101000
5,2018-07-02,OTCINV412,Mary kurgat,1000,1,Nursing,101000
6,2018-07-02,OTCINV412,Mary kurgat,100,2,Normal saline,101000
7,2018-07-02,OTCINV412,Mary kurgat,200,1,Consumables,101000
8,2018-07-02,OTCINV412,Mary kurgat,10,10,Clean Gloves,101000
9,2018-07-02,OTCINV412,Mary kurgat,130,1,Primapore ( LEUKOMED),101000
10,2018-07-02,OTCINV412,Mary kurgat,400,1,Food,101000
11,2018-07-02,OTCINV412,Mary kurgat,10,3,syringes 10ml,101000
12,2018-07-02,OTCINV412,Mary kurgat,20,4,syringes 20ml,101000
13,2018-07-02,OTCINV412,Mary kurgat,5,2,Syringes 5ml,101000
14,2018-07-02,OTCINV412,Mary kurgat,2,2,Needle G23,101000
15,2018-07-02,OTCINV412,Mary kurgat,300,1,CitraLock 4% 5 ml vial,101000
16,2018-07-02,OTCINV412,Mary kurgat,400,1,Heparin 5000iu/ml I.M/I.V inj,101000
17,2018-07-02,OTCINV412,Mary kurgat,3896,1,Dialysis Outpatient,101000
18,2018-07-02,OTCINV548,Dr. kirui,500,1,Createnine - Serum,165000
19,2018-07-02,OTCINV548,Dr. kirui,500,1,Calcium Levels,165000
20,2018-07-02,OTCINV548,Dr. kirui,2000,1,PSA,165000
21,2018-07-02,OTCINV548,Dr. kirui,250,20,Cefuroxime Tabs 500 mg ( ZINNAT),165000
22,2018-07-02,OTCINV548,Dr. kirui,25,2,Myospaz Tabs,165000
23,2018-07-02,OTCINV548,Dr. kirui,15,1,Actal Tums Tabs,165000
24,2018-07-02,OTCINV548,Dr. kirui,1500,1,Consultation Dr. Kirui,165000
25,2018-07-02,OTCINV548,Dr. kirui,20,40,Neuro-Forte Tabs,165000
26,2018-07-05,OTCINV1074,David Kipkemboi Rotich,2,2,Needle G23,3040000
27,2018-07-05,OTCINV1074,David Kipkemboi Rotich,500,1,Nipro / All types bloodlines,3040000
28,2018-07-05,OTCINV1074,David Kipkemboi Rotich,450,1,Nipro Bicarbonate Catridge,3040000
29,2018-07-05,OTCINV1074,David Kipkemboi Rotich,500,1,Nipro/ other  Acid Concentrate 5L,3040000
30,2018-07-05,OTCINV1074,David Kipkemboi Rotich,1300,1,Nipro/All types Dialysers,3040000
31,2018-07-05,OTCINV1074,David Kipkemboi Rotich,1000,1,Nursing,3040000
32,2018-07-05,OTCINV1074,David Kipkemboi Rotich,100,2,Normal saline,3040000
33,2018-07-05,OTCINV1074,David Kipkemboi Rotich,130,1,Primapore ( LEUKOMED),3040000
34,2018-07-05,OTCINV1074,David Kipkemboi Rotich,200,1,Consumables,3040000
35,2018-07-05,OTCINV1074,David Kipkemboi Rotich,10,10,Clean Gloves,3040000
36,2018-07-05,OTCINV1074,David Kipkemboi Rotich,300,1,CitraLock 4% 5 ml vial,3040000
37,2018-07-05,OTCINV1074,David Kipkemboi Rotich,400,1,Heparin 5000iu/ml I.M/I.V inj,3040000
38,2018-07-05,OTCINV1074,David Kipkemboi Rotich,400,1,Food,3040000
39,2018-07-05,OTCINV1074,David Kipkemboi Rotich,100,1,Fistula Needles Pers,3040000
40,2018-07-05,OTCINV1074,David Kipkemboi Rotich,10,3,syringes 10ml,3040000
41,2018-07-05,OTCINV1074,David Kipkemboi Rotich,20,3,syringes 20ml,3040000
42,2018-07-05,OTCINV1074,David Kipkemboi Rotich,5,2,Syringes 5ml,3040000
43,2018-07-05,OTCINV1074,David Kipkemboi Rotich,3816,1,Dialysis Outpatient,3040000
44,2018-07-02,OTCINV2667,Ruth Nyegenye Peter,500,1,Nipro / All types bloodlines,76000
45,2018-07-02,OTCINV2667,Ruth Nyegenye Peter,450,1,Nipro Bicarbonate Catridge,76000
46,2018-07-02,OTCINV2667,Ruth Nyegenye Peter,500,1,Nipro/ other  Acid Concentrate 5L,76000
47,2018-07-02,OTCINV2667,Ruth Nyegenye Peter,1300,1,Nipro/All types Dialysers,76000
48,2018-07-02,OTCINV2667,Ruth Nyegenye Peter,1000,1,Nursing,76000
49,2018-07-02,OTCINV2667,Ruth Nyegenye Peter,100,3,Normal saline,76000
50,2018-07-02,OTCINV2667,Ruth Nyegenye Peter,200,1,Consumables,76000
51,2018-07-02,OTCINV2667,Ruth Nyegenye Peter,10,10,Clean Gloves,76000
52,2018-07-02,OTCINV2667,Ruth Nyegenye Peter,130,1,Primapore ( LEUKOMED),76000
53,2018-07-02,OTCINV2667,Ruth Nyegenye Peter,300,1,CitraLock 4% 5 ml vial,76000
54,2018-07-02,OTCINV2667,Ruth Nyegenye Peter,400,1,Heparin 5000iu/ml I.M/I.V inj,76000
55,2018-07-02,OTCINV2667,Ruth Nyegenye Peter,10,3,syringes 10ml,76000
56,2018-07-02,OTCINV2667,Ruth Nyegenye Peter,20,4,syringes 20ml,76000
57,2018-07-02,OTCINV2667,Ruth Nyegenye Peter,5,2,Syringes 5ml,76000
58,2018-07-02,OTCINV2667,Ruth Nyegenye Peter,2,2,Needle G23,76000
59,2018-07-02,OTCINV2667,Ruth Nyegenye Peter,4196,1,Dialysis Outpatient,76000
60,2018-07-03,OTCINV2873,Baiya Mariko Suter,500,1,Nipro / All types bloodlines,2486000
61,2018-07-03,OTCINV2873,Baiya Mariko Suter,450,1,Nipro Bicarbonate Catridge,2486000
62,2018-07-03,OTCINV2873,Baiya Mariko Suter,500,1,Nipro/ other  Acid Concentrate 5L,2486000
63,2018-07-03,OTCINV2873,Baiya Mariko Suter,1300,1,Nipro/All types Dialysers,2486000
64,2018-07-03,OTCINV2873,Baiya Mariko Suter,1000,1,Nursing,2486000
65,2018-07-03,OTCINV2873,Baiya Mariko Suter,100,2,Normal saline,2486000
66,2018-07-03,OTCINV2873,Baiya Mariko Suter,200,1,Consumables,2486000
67,2018-07-03,OTCINV2873,Baiya Mariko Suter,10,10,Clean Gloves,2486000
68,2018-07-03,OTCINV2873,Baiya Mariko Suter,130,1,Primapore ( LEUKOMED),2486000
69,2018-07-03,OTCINV2873,Baiya Mariko Suter,400,1,Food,2486000
70,2018-07-03,OTCINV2873,Baiya Mariko Suter,300,1,CitraLock 4% 5 ml vial,2486000
71,2018-07-03,OTCINV2873,Baiya Mariko Suter,10,3,syringes 10ml,2486000
72,2018-07-03,OTCINV2873,Baiya Mariko Suter,20,4,syringes 20ml,2486000
73,2018-07-03,OTCINV2873,Baiya Mariko Suter,5,2,Syringes 5ml,2486000
74,2018-07-03,OTCINV2873,Baiya Mariko Suter,2,2,Needle G23,2486000
75,2018-07-03,OTCINV2873,Baiya Mariko Suter,400,1,Heparin 5000iu/ml I.M/I.V inj,2486000
76,2018-07-03,OTCINV2873,Baiya Mariko Suter,1200,1,Erythropoietin 4000 IU (EPOFIT),2486000
77,2018-07-03,OTCINV2873,Baiya Mariko Suter,2696,1,Dialysis Outpatient,2486000
78,2018-07-03,OTCINV3323,Hellen Njeri Kamau,500,1,Nipro / All types bloodlines,1489000
79,2018-07-03,OTCINV3323,Hellen Njeri Kamau,450,1,Nipro Bicarbonate Catridge,1489000
80,2018-07-03,OTCINV3323,Hellen Njeri Kamau,500,1,Nipro/ other  Acid Concentrate 5L,1489000
81,2018-07-03,OTCINV3323,Hellen Njeri Kamau,1300,1,Nipro/All types Dialysers,1489000
82,2018-07-03,OTCINV3323,Hellen Njeri Kamau,1200,1,Erythropoietin 4000 IU (EPOFIT),1489000
83,2018-07-03,OTCINV3323,Hellen Njeri Kamau,400,1,Food,1489000
84,2018-07-03,OTCINV3323,Hellen Njeri Kamau,200,1,Consumables,1489000
85,2018-07-03,OTCINV3323,Hellen Njeri Kamau,10,10,Clean Gloves,1489000
86,2018-07-03,OTCINV3323,Hellen Njeri Kamau,130,1,Primapore ( LEUKOMED),1489000
87,2018-07-03,OTCINV3323,Hellen Njeri Kamau,1000,1,Nursing,1489000
88,2018-07-03,OTCINV3323,Hellen Njeri Kamau,300,1,CitraLock 4% 5 ml vial,1489000
89,2018-07-03,OTCINV3323,Hellen Njeri Kamau,10,3,syringes 10ml,1489000
90,2018-07-03,OTCINV3323,Hellen Njeri Kamau,20,4,syringes 20ml,1489000
91,2018-07-03,OTCINV3323,Hellen Njeri Kamau,5,2,Syringes 5ml,1489000
92,2018-07-03,OTCINV3323,Hellen Njeri Kamau,2,2,Needle G23,1489000
93,2018-07-03,OTCINV3323,Hellen Njeri Kamau,3296,1,Dialysis Outpatient,1489000
94,2018-07-02,OTCINV3576,Tomdila Kipkoech,500,1,Nipro / All types bloodlines,2463000
95,2018-07-02,OTCINV3576,Tomdila Kipkoech,450,1,Nipro Bicarbonate Catridge,2463000
96,2018-07-02,OTCINV3576,Tomdila Kipkoech,500,1,Nipro/ other  Acid Concentrate 5L,2463000
97,2018-07-02,OTCINV3576,Tomdila Kipkoech,1300,1,Nipro/All types Dialysers,2463000
98,2018-07-02,OTCINV3576,Tomdila Kipkoech,1000,1,Nursing,2463000
99,2018-07-02,OTCINV3576,Tomdila Kipkoech,100,3,Normal saline,2463000
100,2018-07-02,OTCINV3576,Tomdila Kipkoech,10,10,Clean Gloves,2463000
101,2018-07-02,OTCINV3576,Tomdila Kipkoech,200,1,Consumables,2463000
102,2018-07-02,OTCINV3576,Tomdila Kipkoech,130,1,Primapore ( LEUKOMED),2463000
103,2018-07-02,OTCINV3576,Tomdila Kipkoech,400,1,Food,2463000
104,2018-07-02,OTCINV3576,Tomdila Kipkoech,300,1,CitraLock 4% 5 ml vial,2463000
105,2018-07-02,OTCINV3576,Tomdila Kipkoech,400,1,Heparin 5000iu/ml I.M/I.V inj,2463000
106,2018-07-02,OTCINV3576,Tomdila Kipkoech,10,3,syringes 10ml,2463000
107,2018-07-02,OTCINV3576,Tomdila Kipkoech,20,4,syringes 20ml,2463000
108,2018-07-02,OTCINV3576,Tomdila Kipkoech,5,2,Syringes 5ml,2463000
109,2018-07-02,OTCINV3576,Tomdila Kipkoech,2,2,Needle G23,2463000
110,2018-07-02,OTCINV3576,Tomdila Kipkoech,3796,1,Dialysis Outpatient,2463000
111,2018-07-02,OTCINV3419,David Kipkemboi Rotich,500,1,Nipro / All types bloodlines,3040000
112,2018-07-02,OTCINV3419,David Kipkemboi Rotich,450,1,Nipro Bicarbonate Catridge,3040000
113,2018-07-02,OTCINV3419,David Kipkemboi Rotich,500,1,Nipro/ other  Acid Concentrate 5L,3040000
114,2018-07-02,OTCINV3419,David Kipkemboi Rotich,1300,1,Nipro/All types Dialysers,3040000
115,2018-07-02,OTCINV3419,David Kipkemboi Rotich,1000,1,Nursing,3040000
116,2018-07-02,OTCINV3419,David Kipkemboi Rotich,100,2,Normal saline,3040000
117,2018-07-02,OTCINV3419,David Kipkemboi Rotich,130,1,Primapore ( LEUKOMED),3040000
118,2018-07-02,OTCINV3419,David Kipkemboi Rotich,200,1,Consumables,3040000
119,2018-07-02,OTCINV3419,David Kipkemboi Rotich,10,10,Clean Gloves,3040000
120,2018-07-02,OTCINV3419,David Kipkemboi Rotich,130,1,Primapore ( LEUKOMED),3040000
121,2018-07-02,OTCINV3419,David Kipkemboi Rotich,300,1,CitraLock 4% 5 ml vial,3040000
122,2018-07-02,OTCINV3419,David Kipkemboi Rotich,400,1,Heparin 5000iu/ml I.M/I.V inj,3040000
123,2018-07-02,OTCINV3419,David Kipkemboi Rotich,400,1,Food,3040000
124,2018-07-02,OTCINV3419,David Kipkemboi Rotich,10,3,syringes 10ml,3040000
125,2018-07-02,OTCINV3419,David Kipkemboi Rotich,20,4,syringes 20ml,3040000
126,2018-07-02,OTCINV3419,David Kipkemboi Rotich,5,2,Syringes 5ml,3040000
127,2018-07-02,OTCINV3419,David Kipkemboi Rotich,2,2,Needle G23,3040000
128,2018-07-02,OTCINV3419,David Kipkemboi Rotich,625,1,MEGAFER Inj 100mg/5ml ( Iron Sucrose)),3040000
129,2018-07-02,OTCINV3419,David Kipkemboi Rotich,3041,1,Dialysis Outpatient,3040000
130,2018-07-02,OTCINV3419,David Kipkemboi Rotich,100,1,Fistula Needles Pers,3040000
131,2018-07-02,OTCINV3295,William Njoroge,900,1,Full Blood Count (FBC),7058000
132,2018-07-02,OTCINV3295,William Njoroge,500,1,HIV Test,7058000
133,2018-07-02,OTCINV3295,William Njoroge,1500,1,Hepatitis c - Elisa,7058000
134,2018-07-02,OTCINV3295,William Njoroge,500,1,Hepatitis BsAg - Rapid,7058000
135,2018-07-02,OTCINV3295,William Njoroge,500,1,VDRL,7058000
136,2018-07-02,OTCINV3296,George Naman Otura,3000,1,Serum electrophoresis,776000
137,2018-07-02,OTCINV3296,George Naman Otura,5000,1,CMV IgG/IgM antibodies,776000
138,2018-07-02,OTCINV3296,George Naman Otura,6000,1,Hb Eletrophroresis,776000
139,2018-07-02,OTCINV3296,George Naman Otura,14000,1,DSA,776000
140,2018-07-01,OTCINV3297,Rev Elisha K. Kimaiyo,1000,1,Consultation Dr. Maritim,80000
141,2018-07-01,OTCINV3297,Rev Elisha K. Kimaiyo,2000,1,Urea/Creatinine/Electrolytes(KFT),80000
142,2018-07-01,OTCINV3297,Rev Elisha K. Kimaiyo,900,1,Full Blood Count (FBC),80000
143,2018-07-01,OTCINV3297,Rev Elisha K. Kimaiyo,80,1,"Branulas G 18, 20, 22 BD Type",80000
144,2018-07-01,OTCINV3297,Rev Elisha K. Kimaiyo,20,12,Frusemide Inj 10MG/2ml,80000
145,2018-07-01,OTCINV3297,Rev Elisha K. Kimaiyo,48,30,Lasix Tabs 40m,80000
146,2018-07-01,OTCINV3297,Rev Elisha K. Kimaiyo,2,1,Needle G23,80000
147,2018-07-01,OTCINV3297,Rev Elisha K. Kimaiyo,20,1,syringes 20ml,80000
148,2018-07-01,OTCINV3297,Rev Elisha K. Kimaiyo,10,2,Clean Gloves,80000
149,2018-07-01,OTCINV3297,Rev Elisha K. Kimaiyo,82,15,Amtel 80/5 mg Tabs,80000
150,2018-07-01,OTCINV3297,Rev Elisha K. Kimaiyo,52,30,Ideos Chewable Tabs ( Calcium Bicarbonate),80000
151,2018-07-02,OTCINV3298,Fred Kipyegon Tonui,14000,1,DSA,4435000
152,2018-07-02,OTCINV3298,Fred Kipyegon Tonui,3000,1,G6PD,4435000
153,2018-07-02,OTCINV3298,Fred Kipyegon Tonui,6000,1,Hb Eletrophroresis,4435000
154,2018-07-02,OTCINV3298,Fred Kipyegon Tonui,5000,1,CMV IgG/IgM antibodies,4435000
155,2018-07-02,OTCINV3299,George Mukenya Mafura,500,1,Nipro / All types bloodlines,1701000
156,2018-07-02,OTCINV3299,George Mukenya Mafura,450,1,Nipro Bicarbonate Catridge,1701000
157,2018-07-02,OTCINV3299,George Mukenya Mafura,500,1,Nipro/ other  Acid Concentrate 5L,1701000
158,2018-07-02,OTCINV3299,George Mukenya Mafura,1300,1,Nipro/All types Dialysers,1701000
159,2018-07-02,OTCINV3299,George Mukenya Mafura,1000,1,Nursing,1701000
160,2018-07-02,OTCINV3299,George Mukenya Mafura,130,1,Primapore ( LEUKOMED),1701000
161,2018-07-02,OTCINV3299,George Mukenya Mafura,100,3,Normal saline,1701000
162,2018-07-02,OTCINV3299,George Mukenya Mafura,200,1,Consumables,1701000
163,2018-07-02,OTCINV3299,George Mukenya Mafura,10,10,Clean Gloves,1701000
164,2018-07-02,OTCINV3299,George Mukenya Mafura,300,1,CitraLock 4% 5 ml vial,1701000
165,2018-07-02,OTCINV3299,George Mukenya Mafura,400,1,Heparin 5000iu/ml I.M/I.V inj,1701000
166,2018-07-02,OTCINV3299,George Mukenya Mafura,400,1,Food,1701000
167,2018-07-02,OTCINV3299,George Mukenya Mafura,10,3,syringes 10ml,1701000
168,2018-07-02,OTCINV3299,George Mukenya Mafura,5,2,Syringes 5ml,1701000
169,2018-07-02,OTCINV3299,George Mukenya Mafura,20,4,syringes 20ml,1701000
170,2018-07-02,OTCINV3299,George Mukenya Mafura,2,2,Needle G23,1701000
171,2018-07-02,OTCINV3299,George Mukenya Mafura,3796,1,Dialysis Outpatient,1701000
172,2018-07-02,OTCINV3300,Vicotine  Jeruto Toroitich,1500,1,Consultation Dr. Maritim,7002000
173,2018-07-02,OTCINV3301,Joseph Langat,620,1,Lactulose(LACTULAC) SOL 200ml,148000
174,2018-07-02,OTCINV3301,Joseph Langat,10,30,Colchicine Tabs 500mcg ( GOUTNIL),148000
175,2018-07-02,OTCINV3302,Jepleting Kipkoech,1000,1,Uric Acid Levels,6099000
176,2018-07-02,OTCINV3302,Jepleting Kipkoech,41,30,Losartas 50 mg Tabs,6099000
177,2018-07-02,OTCINV3302,Jepleting Kipkoech,1500,1,Consultation Dr. Maritim,6099000
178,2018-07-02,OTCINV3302,Jepleting Kipkoech,580,1,Labetolol inj Stat dose,6099000
179,2018-07-02,OTCINV3302,Jepleting Kipkoech,10,1,syringes 10ml,6099000
180,2018-07-02,OTCINV3302,Jepleting Kipkoech,2,2,Needle G23,6099000
181,2018-07-02,OTCINV3302,Jepleting Kipkoech,80,1,"Branulas G 18, 20, 22 BD Type",6099000
182,2018-07-02,OTCINV3302,Jepleting Kipkoech,80,30,Ritor-SR,6099000
183,2018-07-02,OTCINV3302,Jepleting Kipkoech,90,30,Febuxostat 40 mg tabs (MEBUX 40),6099000
184,2018-07-02,OTCINV3302,Jepleting Kipkoech,10,30,Colchicine Tabs 500mcg ( GOUTNIL),6099000
185,2018-07-02,OTCINV3302,Jepleting Kipkoech,25,10,Myospaz Tabs,6099000
186,2018-07-02,OTCINV3302,Jepleting Kipkoech,25,30,Amlodipine 5 mg Tabs (AMLIBON),6099000
187,2018-07-02,OTCINV3303,Paul Kipkorir Ngeno,500,1,Calcium Levels,2788000
188,2018-07-02,OTCINV3303,Paul Kipkorir Ngeno,500,1,Phosphorus levels,2788000
189,2018-07-02,OTCINV3303,Paul Kipkorir Ngeno,1000,1,Uric Acid Levels,2788000
190,2018-07-02,OTCINV3303,Paul Kipkorir Ngeno,1000,1,Ldh,2788000
191,2018-07-02,OTCINV3303,Paul Kipkorir Ngeno,3500,1,Liver Funtion Test Full,2788000
192,2018-07-02,OTCINV3303,Paul Kipkorir Ngeno,2000,1,Lipid profile:full,2788000
193,2018-07-02,OTCINV3303,Paul Kipkorir Ngeno,1500,1,TSH,2788000
194,2018-07-02,OTCINV3303,Paul Kipkorir Ngeno,2000,1,Glycocylated Haemoglobin (Hba1c),2788000
195,2018-07-02,OTCINV3303,Paul Kipkorir Ngeno,6000,1,Hb Eletrophroresis,2788000
196,2018-07-02,OTCINV3303,Paul Kipkorir Ngeno,3000,1,G6PD,2788000
197,2018-07-02,OTCINV3303,Paul Kipkorir Ngeno,3500,1,ANA LANCET,2788000
198,2018-07-02,OTCINV3303,Paul Kipkorir Ngeno,8000,1,ANCA,2788000
199,2018-07-02,OTCINV3303,Paul Kipkorir Ngeno,2000,1,C3,2788000
200,2018-07-02,OTCINV3303,Paul Kipkorir Ngeno,2000,1,C-4,2788000
201,2018-07-02,OTCINV3303,Paul Kipkorir Ngeno,500,1,HIV Test,2788000
202,2018-07-02,OTCINV3303,Paul Kipkorir Ngeno,500,1,VDRL,2788000
203,2018-07-02,OTCINV3303,Paul Kipkorir Ngeno,500,1,Hepatitis BsAg - Rapid,2788000
204,2018-07-02,OTCINV3303,Paul Kipkorir Ngeno,500,1,Hepatitis C Test - Rapid,2788000
205,2018-07-02,OTCINV3303,Paul Kipkorir Ngeno,250,1,Urinalysis/microscopy,2788000
206,2018-07-02,OTCINV3303,Paul Kipkorir Ngeno,5000,1,CMV IgG/IgM antibodies,2788000
207,2018-07-02,OTCINV3303,Paul Kipkorir Ngeno,2000,1,Parathoid hormone,2788000
208,2018-07-02,OTCINV3303,Paul Kipkorir Ngeno,2500,1,Urine Protein Creatine Ratio,2788000
209,2018-07-02,OTCINV3303,Paul Kipkorir Ngeno,3000,1,Serum electrophoresis,2788000
210,2018-07-02,OTCINV3303,Paul Kipkorir Ngeno,2000,1,PSA,2788000
211,2018-07-02,OTCINV3304,philip,100,2,Nexium 20mg (Esomeprazole) tabs,108000
212,2018-07-02,OTCINV3304,philip,6,2,Panadol Advance Tabs,108000
213,2018-07-02,OTCINV3304,philip,5,10,Prednisolone Tabs 5mg (BLISTERED),108000
214,2018-07-02,OTCINV3304,philip,1,30,Metronidazole Tabs  200 mg.,108000
215,2018-07-02,OTCINV3305,Joel Chelimo,14000,1,DSA,1480000
216,2018-07-02,OTCINV3306,Sophie Chemisto,700,1,Non Re-breathable Mask Adult,3607000
217,2018-07-02,OTCINV3306,Sophie Chemisto,415,1,Nebulization Mask ADULT,3607000
218,2018-07-02,OTCINV3306,Sophie Chemisto,160,8,Combivent udv Nebulizer 2.5ml,3607000
219,2018-07-02,OTCINV3306,Sophie Chemisto,20,108,Frusemide Inj 10MG/2ml,3607000
220,2018-07-02,OTCINV3306,Sophie Chemisto,10,10,syringes 10ml,3607000
221,2018-07-02,OTCINV3306,Sophie Chemisto,20,3,syringes 20ml,3607000
222,2018-07-02,OTCINV3306,Sophie Chemisto,2,4,Needle G23,3607000
223,2018-07-02,OTCINV3306,Sophie Chemisto,80,2,"Branulas G 18, 20, 22 BD Type",3607000
224,2018-07-02,OTCINV3306,Sophie Chemisto,1500,1,ECG,3607000
225,2018-07-02,OTCINV3306,Sophie Chemisto,900,1,Full Blood Count (FBC),3607000
226,2018-07-02,OTCINV3306,Sophie Chemisto,2000,1,Urea/Creatinine/Electrolytes(KFT),3607000
227,2018-07-02,OTCINV3306,Sophie Chemisto,3500,1,Liver Funtion Test Full,3607000
228,2018-07-02,OTCINV3306,Sophie Chemisto,2500,1,Blood Gas Analysis,3607000
229,2018-07-02,OTCINV3306,Sophie Chemisto,100,1,Calcium gluconate Inj 1gm/ml,3607000
230,2018-07-02,OTCINV3306,Sophie Chemisto,105,1,Regular Human insulin Stat Dose,3607000
231,2018-07-02,OTCINV3306,Sophie Chemisto,150,1,Dextrose 50%,3607000
232,2018-07-02,OTCINV3306,Sophie Chemisto,20,1,INSULIN syringes 1ml 30gm,3607000
233,2018-07-02,OTCINV3306,Sophie Chemisto,3000,1,Admission fee,3607000
234,2018-07-02,OTCINV3306,Sophie Chemisto,4500,3,Bed charges,3607000
235,2018-07-02,OTCINV3306,Sophie Chemisto,1500,3,Nursing,3607000
236,2018-07-02,OTCINV3306,Sophie Chemisto,2,15,Needle G23,3607000
237,2018-07-02,OTCINV3306,Sophie Chemisto,5,7,Syringes 3ml,3607000
238,2018-07-02,OTCINV3306,Sophie Chemisto,20,20,syringes 20ml,3607000
239,2018-07-02,OTCINV3306,Sophie Chemisto,10,1,Water for injection,3607000
240,2018-07-02,OTCINV3306,Sophie Chemisto,30,3,Metoclopramide Injection(Metomed 10Mg/2ml,3607000
241,2018-07-02,OTCINV3306,Sophie Chemisto,2000,8,Nebulization,3607000
242,2018-07-02,OTCINV3306,Sophie Chemisto,250,5,Random Blood Sugar (RBS),3607000
243,2018-07-02,OTCINV3306,Sophie Chemisto,200,1,Bed Secure Zone (MACKING TOSH),3607000
244,2018-07-02,OTCINV3306,Sophie Chemisto,10,2,Surgical Blades,3607000
245,2018-07-02,OTCINV3306,Sophie Chemisto,35,1,Surgical gloves,3607000
246,2018-07-02,OTCINV3306,Sophie Chemisto,10,1,syringes 10ml,3607000
247,2018-07-02,OTCINV3306,Sophie Chemisto,20,1,syringes 20ml,3607000
248,2018-07-02,OTCINV3306,Sophie Chemisto,5,2,Syringes 5ml,3607000
249,2018-07-02,OTCINV3306,Sophie Chemisto,2,6,Needle G23,3607000
250,2018-07-02,OTCINV3306,Sophie Chemisto,100,1,Lignocaine 2% inj,3607000
251,2018-07-02,OTCINV3306,Sophie Chemisto,400,1,Heparin 5000iu/ml I.M/I.V inj,3607000
252,2018-07-02,OTCINV3306,Sophie Chemisto,200,1,Consumables,3607000
253,2018-07-02,OTCINV3306,Sophie Chemisto,100,1,Normal saline,3607000
254,2018-07-02,OTCINV3306,Sophie Chemisto,1000,1,Stitching pack,3607000
255,2018-07-02,OTCINV3306,Sophie Chemisto,1000,1,Ethilon Nylon Suture 1/0 R/C,3607000
256,2018-07-02,OTCINV3306,Sophie Chemisto,600,1,Vincryl 3/0 R/B,3607000
257,2018-07-02,OTCINV3306,Sophie Chemisto,600,1,Sterile Gown,3607000
258,2018-07-02,OTCINV3306,Sophie Chemisto,20000,1,Permanent Dialysis Catheter,3607000
259,2018-07-02,OTCINV3306,Sophie Chemisto,30000,1,Permcath. Insertion Doctor's fees,3607000
260,2018-07-02,OTCINV3306,Sophie Chemisto,10,2,Masks,3607000
261,2018-07-02,OTCINV3306,Sophie Chemisto,10,2,Surgeon  Caps,3607000
262,2018-07-02,OTCINV3306,Sophie Chemisto,10,1,Water for injection,3607000
263,2018-07-02,OTCINV3306,Sophie Chemisto,600,2,Clean gloves ( BOX),3607000
264,2018-07-02,OTCINV3306,Sophie Chemisto,200,1,Nosal Brongs,3607000
265,2018-07-02,OTCINV3306,Sophie Chemisto,500,3,Nipro / All types bloodlines,3607000
266,2018-07-02,OTCINV3306,Sophie Chemisto,450,3,Nipro Bicarbonate Catridge,3607000
267,2018-07-02,OTCINV3306,Sophie Chemisto,500,3,Nipro/ other  Acid Concentrate 5L,3607000
268,2018-07-02,OTCINV3306,Sophie Chemisto,1300,3,Nipro/All types Dialysers,3607000
269,2018-07-02,OTCINV3306,Sophie Chemisto,1000,3,Nursing,3607000
270,2018-07-02,OTCINV3306,Sophie Chemisto,100,6,Normal saline,3607000
271,2018-07-02,OTCINV3306,Sophie Chemisto,300,3,CitraLock 4% 5 ml vial,3607000
272,2018-07-02,OTCINV3306,Sophie Chemisto,400,3,Heparin 5000iu/ml I.M/I.V inj,3607000
273,2018-07-02,OTCINV3306,Sophie Chemisto,130,3,Primapore ( LEUKOMED),3607000
274,2018-07-02,OTCINV3306,Sophie Chemisto,200,3,Consumables,3607000
275,2018-07-02,OTCINV3306,Sophie Chemisto,10,9,syringes 10ml,3607000
276,2018-07-02,OTCINV3306,Sophie Chemisto,20,10,syringes 20ml,3607000
277,2018-07-02,OTCINV3306,Sophie Chemisto,5,6,Syringes 5ml,3607000
278,2018-07-02,OTCINV3306,Sophie Chemisto,2,6,Needle G23,3607000
279,2018-07-02,OTCINV3306,Sophie Chemisto,3752,3,Dialysis Outpatient,3607000
280,2018-07-02,OTCINV3306,Sophie Chemisto,1500,1,Consultation Dr. Maritim,3607000
281,2018-07-02,OTCINV3306,Sophie Chemisto,4000,2,Doctors Review - Dr. Koech,3607000
282,2018-07-02,OTCINV3306,Sophie Chemisto,36,34,Nebivolol 2.5 mg Tabs( NEBIRING),3607000
283,2018-07-02,OTCINV3306,Sophie Chemisto,35,31,Pregabalin Tabs 75mg ( PRENURA),3607000
284,2018-07-02,OTCINV3306,Sophie Chemisto,75,30,Treviamet 50/500mg Tabs,3607000
285,2018-07-02,OTCINV3306,Sophie Chemisto,250,2,Blood grouping/Du test,3607000
286,2018-07-02,OTCINV3306,Sophie Chemisto,48,60,Lasix Tabs 40m,3607000
287,2018-07-02,OTCINV3306,Sophie Chemisto,140,28,Rosuvastatin Tabs ( Crestor) 20mg,3607000
288,2018-07-02,OTCINV3306,Sophie Chemisto,6384,2,Oxygen per cylinder,3607000
289,2018-07-02,OTCINV3308,James Gachanja Thuku,14000,1,DSA,3907000
290,2018-07-02,OTCINV3310,Hellen Njeri Kamau,14000,1,DSA,1489000
291,2018-07-02,OTCINV3311,William Kariakei,14000,1,DSA,223000
292,2018-07-02,OTCINV3312,Tomdila Kipkoech,14000,1,DSA,2463000
293,2018-07-02,OTCINV3313,Sila Kemboi Samoei,14000,1,DSA,1105000
294,2018-07-02,OTCINV3314,Sila Kemboi Samoei,14000,1,DSA,1105000
295,2018-07-02,OTCINV3315,Baiya Mariko Suter,14000,1,DSA,2486000
296,2018-07-02,OTCINV3315,Baiya Mariko Suter,2500,1,Urine Protein Creatine Ratio,2486000
297,2018-07-02,OTCINV3315,Baiya Mariko Suter,5000,1,CMV IgG/IgM antibodies,2486000
298,2018-07-02,OTCINV3315,Baiya Mariko Suter,6000,1,Hb Eletrophroresis,2486000
299,2018-07-02,OTCINV3315,Baiya Mariko Suter,3000,1,G6PD,2486000
300,2018-07-02,OTCINV3317,Stephen  Chepkwony,1600,1,2 Way Catheter size 16 ( SILICONE),6197000
301,2018-07-02,OTCINV3317,Stephen  Chepkwony,35,1,Surgical gloves,6197000
302,2018-07-02,OTCINV3317,Stephen  Chepkwony,130,1,Urine Bag 2000ml ( Biolife),6197000
303,2018-07-02,OTCINV3317,Stephen  Chepkwony,20,2,syringes 20ml,6197000
304,2018-07-02,OTCINV3317,Stephen  Chepkwony,500,1,Nursing fee,6197000
305,2018-07-02,OTCINV3317,Stephen  Chepkwony,10,2,Water for injection,6197000
306,2018-07-02,OTCINV3317,Stephen  Chepkwony,10,2,Clean Gloves,6197000
307,2018-07-02,OTCINV3318,Elizabeth Nduku Mulu,900,1,Full Blood Count (FBC),2518000
308,2018-07-02,OTCINV3318,Elizabeth Nduku Mulu,2000,1,Urea/Creatinine/Electrolytes(KFT),2518000
309,2018-07-02,OTCINV3318,Elizabeth Nduku Mulu,250,1,Urinalysis/microscopy,2518000
310,2018-07-02,OTCINV3319,Lucy Cherop Sambu,14000,1,DSA,791000
311,2018-07-02,OTCINV3320,Job Kibiwot Sitienei,500,1,Nipro / All types bloodlines,3088000
312,2018-07-02,OTCINV3320,Job Kibiwot Sitienei,450,1,Nipro Bicarbonate Catridge,3088000
313,2018-07-02,OTCINV3320,Job Kibiwot Sitienei,500,1,Nipro/ other  Acid Concentrate 5L,3088000
314,2018-07-02,OTCINV3320,Job Kibiwot Sitienei,1300,1,Nipro/All types Dialysers,3088000
315,2018-07-02,OTCINV3320,Job Kibiwot Sitienei,1000,1,Nursing,3088000
316,2018-07-02,OTCINV3320,Job Kibiwot Sitienei,100,2,Normal saline,3088000
317,2018-07-02,OTCINV3320,Job Kibiwot Sitienei,200,1,Consumables,3088000
318,2018-07-02,OTCINV3320,Job Kibiwot Sitienei,10,10,Clean Gloves,3088000
319,2018-07-02,OTCINV3320,Job Kibiwot Sitienei,130,1,Primapore ( LEUKOMED),3088000
320,2018-07-02,OTCINV3320,Job Kibiwot Sitienei,300,1,CitraLock 4% 5 ml vial,3088000
321,2018-07-02,OTCINV3320,Job Kibiwot Sitienei,400,1,Heparin 5000iu/ml I.M/I.V inj,3088000
322,2018-07-02,OTCINV3320,Job Kibiwot Sitienei,400,1,Food,3088000
323,2018-07-02,OTCINV3320,Job Kibiwot Sitienei,1200,1,Erythropoietin 4000 IU (EPOFIT),3088000
324,2018-07-02,OTCINV3320,Job Kibiwot Sitienei,10,3,syringes 10ml,3088000
325,2018-07-02,OTCINV3320,Job Kibiwot Sitienei,20,4,syringes 20ml,3088000
326,2018-07-02,OTCINV3320,Job Kibiwot Sitienei,5,2,Syringes 5ml,3088000
327,2018-07-02,OTCINV3320,Job Kibiwot Sitienei,2,2,Needle G23,3088000
328,2018-07-02,OTCINV3320,Job Kibiwot Sitienei,2696,1,Dialysis Outpatient,3088000
329,2018-07-02,OTCINV3321,Esther Mutai,500,1,Nipro / All types bloodlines,76000
330,2018-07-02,OTCINV3321,Esther Mutai,450,1,Nipro Bicarbonate Catridge,76000
331,2018-07-02,OTCINV3321,Esther Mutai,500,1,Nipro/ other  Acid Concentrate 5L,76000
332,2018-07-02,OTCINV3321,Esther Mutai,1300,1,Nipro/All types Dialysers,76000
333,2018-07-02,OTCINV3321,Esther Mutai,1000,1,Nursing,76000
334,2018-07-02,OTCINV3321,Esther Mutai,100,2,Normal saline,76000
335,2018-07-02,OTCINV3321,Esther Mutai,200,1,Consumables,76000
336,2018-07-02,OTCINV3321,Esther Mutai,10,10,Clean Gloves,76000
337,2018-07-02,OTCINV3321,Esther Mutai,130,1,Primapore ( LEUKOMED),76000
338,2018-07-02,OTCINV3321,Esther Mutai,400,1,Food,76000
339,2018-07-02,OTCINV3321,Esther Mutai,10,3,syringes 10ml,76000
340,2018-07-02,OTCINV3321,Esther Mutai,20,4,syringes 20ml,76000
341,2018-07-02,OTCINV3321,Esther Mutai,5,2,Syringes 5ml,76000
342,2018-07-02,OTCINV3321,Esther Mutai,2,2,Needle G23,76000
343,2018-07-02,OTCINV3321,Esther Mutai,300,1,CitraLock 4% 5 ml vial,76000
344,2018-07-02,OTCINV3321,Esther Mutai,4296,1,Dialysis Outpatient,76000
345,2018-07-02,OTCINV3322,Joseph njuguna Kariuki,625,1,MEGAFER Inj 100mg/5ml ( Iron Sucrose)),803000
346,2018-07-02,OTCINV3322,Joseph njuguna Kariuki,500,1,Nipro / All types bloodlines,803000
347,2018-07-02,OTCINV3322,Joseph njuguna Kariuki,450,1,Nipro Bicarbonate Catridge,803000
348,2018-07-02,OTCINV3322,Joseph njuguna Kariuki,1300,1,Nipro/All types Dialysers,803000
349,2018-07-02,OTCINV3322,Joseph njuguna Kariuki,1000,1,Nursing,803000
350,2018-07-02,OTCINV3322,Joseph njuguna Kariuki,100,3,Normal saline,803000
351,2018-07-02,OTCINV3322,Joseph njuguna Kariuki,130,1,Primapore ( LEUKOMED),803000
352,2018-07-02,OTCINV3322,Joseph njuguna Kariuki,500,1,Nipro/ other  Acid Concentrate 5L,803000
353,2018-07-02,OTCINV3322,Joseph njuguna Kariuki,400,1,Food,803000
354,2018-07-02,OTCINV3322,Joseph njuguna Kariuki,200,1,Consumables,803000
355,2018-07-02,OTCINV3322,Joseph njuguna Kariuki,10,10,Clean Gloves,803000
356,2018-07-02,OTCINV3322,Joseph njuguna Kariuki,10,3,syringes 10ml,803000
357,2018-07-02,OTCINV3322,Joseph njuguna Kariuki,20,4,syringes 20ml,803000
358,2018-07-02,OTCINV3322,Joseph njuguna Kariuki,5,2,Syringes 5ml,803000
359,2018-07-02,OTCINV3322,Joseph njuguna Kariuki,2,2,Needle G23,803000
360,2018-07-02,OTCINV3322,Joseph njuguna Kariuki,3871,1,Dialysis Outpatient,803000
361,2018-07-02,OTCINV3324,Joseph Langat,500,1,Nipro / All types bloodlines,148000
362,2018-07-02,OTCINV3324,Joseph Langat,450,1,Nipro Bicarbonate Catridge,148000
363,2018-07-02,OTCINV3324,Joseph Langat,500,1,Nipro/ other  Acid Concentrate 5L,148000
364,2018-07-02,OTCINV3324,Joseph Langat,1300,1,Nipro/All types Dialysers,148000
365,2018-07-02,OTCINV3324,Joseph Langat,150,1,Nemiderm ABS 10x25 CM,148000
366,2018-07-02,OTCINV3324,Joseph Langat,200,1,Consumables,148000
367,2018-07-02,OTCINV3324,Joseph Langat,10,10,Clean Gloves,148000
368,2018-07-02,OTCINV3324,Joseph Langat,400,1,Food,148000
369,2018-07-02,OTCINV3324,Joseph Langat,1000,1,Nursing,148000
370,2018-07-02,OTCINV3324,Joseph Langat,130,1,Primapore ( LEUKOMED),148000
371,2018-07-02,OTCINV3324,Joseph Langat,100,3,Normal saline,148000
372,2018-07-02,OTCINV3324,Joseph Langat,10,3,syringes 10ml,148000
373,2018-07-02,OTCINV3324,Joseph Langat,20,4,syringes 20ml,148000
374,2018-07-02,OTCINV3324,Joseph Langat,5,2,Syringes 5ml,148000
375,2018-07-02,OTCINV3324,Joseph Langat,2,2,Needle G23,148000
376,2018-07-02,OTCINV3324,Joseph Langat,300,1,CitraLock 4% 5 ml vial,148000
377,2018-07-02,OTCINV3324,Joseph Langat,4046,1,Dialysis Outpatient,148000
378,2018-07-02,OTCINV3325,Peter Macharia ST  LUKE'S,500,1,Nipro / All types bloodlines,6378000
379,2018-07-02,OTCINV3325,Peter Macharia ST  LUKE'S,450,1,Nipro Bicarbonate Catridge,6378000
380,2018-07-02,OTCINV3325,Peter Macharia ST  LUKE'S,500,1,Nipro/ other  Acid Concentrate 5L,6378000
381,2018-07-02,OTCINV3325,Peter Macharia ST  LUKE'S,1300,1,Nipro/All types Dialysers,6378000
382,2018-07-02,OTCINV3325,Peter Macharia ST  LUKE'S,1000,1,Nursing,6378000
383,2018-07-02,OTCINV3325,Peter Macharia ST  LUKE'S,100,7,Normal saline,6378000
384,2018-07-02,OTCINV3325,Peter Macharia ST  LUKE'S,200,1,Consumables,6378000
385,2018-07-02,OTCINV3325,Peter Macharia ST  LUKE'S,10,10,Clean Gloves,6378000
386,2018-07-02,OTCINV3325,Peter Macharia ST  LUKE'S,130,1,Primapore ( LEUKOMED),6378000
387,2018-07-02,OTCINV3325,Peter Macharia ST  LUKE'S,400,1,Food,6378000
388,2018-07-02,OTCINV3325,Peter Macharia ST  LUKE'S,10,3,syringes 10ml,6378000
389,2018-07-02,OTCINV3325,Peter Macharia ST  LUKE'S,20,4,syringes 20ml,6378000
390,2018-07-02,OTCINV3325,Peter Macharia ST  LUKE'S,5,2,Syringes 5ml,6378000
391,2018-07-02,OTCINV3325,Peter Macharia ST  LUKE'S,2,2,Needle G23,6378000
392,2018-07-02,OTCINV3325,Peter Macharia ST  LUKE'S,4096,1,Dialysis Outpatient,6378000
393,2018-07-02,OTCINV3326,William Njoroge,500,2,Nipro / All types bloodlines,7058000
394,2018-07-02,OTCINV3326,William Njoroge,450,2,Nipro Bicarbonate Catridge,7058000
395,2018-07-02,OTCINV3326,William Njoroge,1300,2,Nipro/All types Dialysers,7058000
396,2018-07-02,OTCINV3326,William Njoroge,500,1,Nipro/ other  Acid Concentrate 5L,7058000
397,2018-07-02,OTCINV3326,William Njoroge,1000,1,Nursing,7058000
398,2018-07-02,OTCINV3326,William Njoroge,400,1,Food,7058000
399,2018-07-02,OTCINV3326,William Njoroge,200,1,Consumables,7058000
400,2018-07-02,OTCINV3326,William Njoroge,10,10,Clean Gloves,7058000
401,2018-07-02,OTCINV3326,William Njoroge,10,3,syringes 10ml,7058000
402,2018-07-02,OTCINV3326,William Njoroge,20,4,syringes 20ml,7058000
403,2018-07-02,OTCINV3326,William Njoroge,5,2,Syringes 5ml,7058000
404,2018-07-02,OTCINV3326,William Njoroge,2680,1,Dialysis Outpatient,7058000
405,2018-07-03,OTCINV3327,Charles Kipkemoi Mutai,2000,1,Consultation -  Dr. Koech,4121000
406,2018-07-03,OTCINV3328,Nancy Jeptoo Tanui,2000,1,Glycocylated Haemoglobin (Hba1c),1344000
407,2018-07-03,OTCINV3328,Nancy Jeptoo Tanui,2000,1,Urea/Creatinine/Electrolytes(KFT),1344000
408,2018-07-03,OTCINV3328,Nancy Jeptoo Tanui,1000,1,Consultation Review - Dr. Kirui,1344000
409,2018-07-03,OTCINV3328,Nancy Jeptoo Tanui,75,30,Treviamet 50/1000mg Tabs,1344000
410,2018-07-03,OTCINV3329,Ruth Wanjiku Waweru,500,1,Nipro / All types bloodlines,3763000
411,2018-07-03,OTCINV3329,Ruth Wanjiku Waweru,450,1,Nipro Bicarbonate Catridge,3763000
412,2018-07-03,OTCINV3329,Ruth Wanjiku Waweru,500,1,Nipro/ other  Acid Concentrate 5L,3763000
413,2018-07-03,OTCINV3329,Ruth Wanjiku Waweru,1300,1,Nipro/All types Dialysers,3763000
414,2018-07-03,OTCINV3329,Ruth Wanjiku Waweru,1000,1,Nursing,3763000
415,2018-07-03,OTCINV3329,Ruth Wanjiku Waweru,100,2,Normal saline,3763000
416,2018-07-03,OTCINV3329,Ruth Wanjiku Waweru,100,1,Fistula Needles Pers,3763000
417,2018-07-03,OTCINV3329,Ruth Wanjiku Waweru,300,1,CitraLock 4% 5 ml vial,3763000
418,2018-07-03,OTCINV3329,Ruth Wanjiku Waweru,130,1,Primapore ( LEUKOMED),3763000
419,2018-07-03,OTCINV3329,Ruth Wanjiku Waweru,10,10,Clean Gloves,3763000
420,2018-07-03,OTCINV3329,Ruth Wanjiku Waweru,200,1,Consumables,3763000
421,2018-07-03,OTCINV3329,Ruth Wanjiku Waweru,10,3,syringes 10ml,3763000
422,2018-07-03,OTCINV3329,Ruth Wanjiku Waweru,20,4,syringes 20ml,3763000
423,2018-07-03,OTCINV3329,Ruth Wanjiku Waweru,5,2,Syringes 5ml,3763000
424,2018-07-03,OTCINV3329,Ruth Wanjiku Waweru,2,2,Needle G23,3763000
425,2018-07-03,OTCINV3329,Ruth Wanjiku Waweru,400,1,Food,3763000
426,2018-07-03,OTCINV3329,Ruth Wanjiku Waweru,1200,1,Erythropoietin 4000 IU (EPOFIT),3763000
427,2018-07-03,OTCINV3329,Ruth Wanjiku Waweru,2996,1,Dialysis Outpatient,3763000
428,2018-07-03,OTCINV3330,Joan Jemaiyo Sang,52,30,Ideos Chewable Tabs ( Calcium Bicarbonate),2843000
429,2018-07-03,OTCINV3331,Rachel Chepkirui Koskei,1500,1,Consultation Dr. Maritim,7321000
430,2018-07-03,OTCINV3331,Rachel Chepkirui Koskei,30,1,Metoclopramide Injection(Metomed 10Mg/2ml,7321000
431,2018-07-03,OTCINV3331,Rachel Chepkirui Koskei,30,1,Tramadol Inj 50mg/2ml,7321000
432,2018-07-03,OTCINV3331,Rachel Chepkirui Koskei,20000,1,Permanent Dialysis Catheter,7321000
433,2018-07-03,OTCINV3331,Rachel Chepkirui Koskei,30000,1,Permcath. Insertion Doctor's fees,7321000
434,2018-07-03,OTCINV3331,Rachel Chepkirui Koskei,5000,1,Minor procedure,7321000
435,2018-07-03,OTCINV3331,Rachel Chepkirui Koskei,600,1,Sterile Gown,7321000
436,2018-07-03,OTCINV3331,Rachel Chepkirui Koskei,10,3,Masks,7321000
437,2018-07-03,OTCINV3331,Rachel Chepkirui Koskei,10,3,Surgeon  Caps,7321000
438,2018-07-03,OTCINV3331,Rachel Chepkirui Koskei,100,1,Lignocaine 2% inj,7321000
439,2018-07-03,OTCINV3331,Rachel Chepkirui Koskei,400,1,Heparin 5000iu/ml I.M/I.V inj,7321000
440,2018-07-03,OTCINV3331,Rachel Chepkirui Koskei,200,1,Consumables,7321000
441,2018-07-03,OTCINV3331,Rachel Chepkirui Koskei,1000,1,Stitching pack,7321000
442,2018-07-03,OTCINV3331,Rachel Chepkirui Koskei,100,1,Normal saline,7321000
443,2018-07-03,OTCINV3331,Rachel Chepkirui Koskei,400,1,Nylon suture 3/0RC,7321000
444,2018-07-03,OTCINV3331,Rachel Chepkirui Koskei,1000,1,Ethilon Nylon Suture 1/0 R/C,7321000
445,2018-07-03,OTCINV3331,Rachel Chepkirui Koskei,1000,1,Nursing,7321000
446,2018-07-03,OTCINV3331,Rachel Chepkirui Koskei,10,2,Surgical Blades,7321000
447,2018-07-03,OTCINV3331,Rachel Chepkirui Koskei,130,1,Primapore ( LEUKOMED),7321000
448,2018-07-03,OTCINV3331,Rachel Chepkirui Koskei,35,2,Surgical gloves,7321000
449,2018-07-03,OTCINV3331,Rachel Chepkirui Koskei,2,3,Needle G23,7321000
450,2018-07-03,OTCINV3331,Rachel Chepkirui Koskei,20,1,syringes 20ml,7321000
451,2018-07-03,OTCINV3331,Rachel Chepkirui Koskei,10,1,syringes 10ml,7321000
452,2018-07-03,OTCINV3331,Rachel Chepkirui Koskei,5,3,Syringes 5ml,7321000
453,2018-07-03,OTCINV3331,Rachel Chepkirui Koskei,10,2,Clean Gloves,7321000
454,2018-07-03,OTCINV3332,Joel Chelimo,500,1,Nipro / All types bloodlines,1480000
455,2018-07-03,OTCINV3332,Joel Chelimo,450,1,Nipro Bicarbonate Catridge,1480000
456,2018-07-03,OTCINV3332,Joel Chelimo,500,1,Nipro/ other  Acid Concentrate 5L,1480000
457,2018-07-03,OTCINV3332,Joel Chelimo,1300,1,Nipro/All types Dialysers,1480000
458,2018-07-03,OTCINV3332,Joel Chelimo,100,2,Normal saline,1480000
459,2018-07-03,OTCINV3332,Joel Chelimo,1000,1,Nursing,1480000
460,2018-07-03,OTCINV3332,Joel Chelimo,200,1,Consumables,1480000
461,2018-07-03,OTCINV3332,Joel Chelimo,10,10,Clean Gloves,1480000
462,2018-07-03,OTCINV3332,Joel Chelimo,130,1,Primapore ( LEUKOMED),1480000
463,2018-07-03,OTCINV3332,Joel Chelimo,300,1,CitraLock 4% 5 ml vial,1480000
464,2018-07-03,OTCINV3332,Joel Chelimo,400,1,Food,1480000
465,2018-07-03,OTCINV3332,Joel Chelimo,10,3,syringes 10ml,1480000
466,2018-07-03,OTCINV3332,Joel Chelimo,20,3,syringes 20ml,1480000
467,2018-07-03,OTCINV3332,Joel Chelimo,5,2,Syringes 5ml,1480000
468,2018-07-03,OTCINV3332,Joel Chelimo,2,2,Needle G23,1480000
469,2018-07-03,OTCINV3332,Joel Chelimo,1200,1,Erythropoietin 4000 IU (EPOFIT),1480000
470,2018-07-03,OTCINV3332,Joel Chelimo,3116,1,Dialysis Outpatient,1480000
471,2018-07-03,OTCINV3333,"Ngetich, Viola Chelagat",500,1,Nipro / All types bloodlines,2603000
472,2018-07-03,OTCINV3333,"Ngetich, Viola Chelagat",450,1,Nipro Bicarbonate Catridge,2603000
473,2018-07-03,OTCINV3333,"Ngetich, Viola Chelagat",500,1,Nipro/ other  Acid Concentrate 5L,2603000
474,2018-07-03,OTCINV3333,"Ngetich, Viola Chelagat",1300,1,Nipro/All types Dialysers,2603000
475,2018-07-03,OTCINV3333,"Ngetich, Viola Chelagat",1000,1,Nursing,2603000
476,2018-07-03,OTCINV3333,"Ngetich, Viola Chelagat",100,3,Normal saline,2603000
477,2018-07-03,OTCINV3333,"Ngetich, Viola Chelagat",1200,1,Erythropoietin 4000 IU (EPOFIT),2603000
478,2018-07-03,OTCINV3333,"Ngetich, Viola Chelagat",300,1,CitraLock 4% 5 ml vial,2603000
479,2018-07-03,OTCINV3333,"Ngetich, Viola Chelagat",400,1,Food,2603000
480,2018-07-03,OTCINV3333,"Ngetich, Viola Chelagat",10,3,syringes 10ml,2603000
481,2018-07-03,OTCINV3333,"Ngetich, Viola Chelagat",20,3,syringes 20ml,2603000
482,2018-07-03,OTCINV3333,"Ngetich, Viola Chelagat",5,2,Syringes 5ml,2603000
483,2018-07-03,OTCINV3333,"Ngetich, Viola Chelagat",2,2,Needle G23,2603000
484,2018-07-03,OTCINV3333,"Ngetich, Viola Chelagat",130,1,Primapore ( LEUKOMED),2603000
485,2018-07-03,OTCINV3333,"Ngetich, Viola Chelagat",10,10,Clean Gloves,2603000
486,2018-07-03,OTCINV3333,"Ngetich, Viola Chelagat",3216,1,Dialysis Outpatient,2603000
487,2018-07-03,OTCINV3334,Benard Kiprono Langat,500,1,Nipro / All types bloodlines,3015000
488,2018-07-03,OTCINV3334,Benard Kiprono Langat,450,1,Nipro Bicarbonate Catridge,3015000
489,2018-07-03,OTCINV3334,Benard Kiprono Langat,500,1,Nipro/ other  Acid Concentrate 5L,3015000
490,2018-07-03,OTCINV3334,Benard Kiprono Langat,1300,1,Nipro/All types Dialysers,3015000
491,2018-07-03,OTCINV3334,Benard Kiprono Langat,100,2,Normal saline,3015000
492,2018-07-03,OTCINV3334,Benard Kiprono Langat,200,1,Consumables,3015000
493,2018-07-03,OTCINV3334,Benard Kiprono Langat,10,10,Clean Gloves,3015000
494,2018-07-03,OTCINV3334,Benard Kiprono Langat,1000,1,Nursing,3015000
495,2018-07-03,OTCINV3334,Benard Kiprono Langat,130,1,Primapore ( LEUKOMED),3015000
496,2018-07-03,OTCINV3334,Benard Kiprono Langat,1200,1,Erythropoietin 4000 IU (EPOFIT),3015000
497,2018-07-03,OTCINV3334,Benard Kiprono Langat,400,1,Food,3015000
498,2018-07-03,OTCINV3334,Benard Kiprono Langat,10,3,syringes 10ml,3015000
499,2018-07-03,OTCINV3334,Benard Kiprono Langat,20,3,syringes 20ml,3015000
500,2018-07-03,OTCINV3334,Benard Kiprono Langat,5,3,Syringes 5ml,3015000
501,2018-07-03,OTCINV3334,Benard Kiprono Langat,2,2,Needle G23,3015000
502,2018-07-03,OTCINV3334,Benard Kiprono Langat,3411,1,Dialysis Outpatient,3015000
503,2018-07-03,OTCINV3335,Joan Jemaiyo Sang,500,1,Nipro / All types bloodlines,2843000
504,2018-07-03,OTCINV3335,Joan Jemaiyo Sang,450,1,Nipro Bicarbonate Catridge,2843000
505,2018-07-03,OTCINV3335,Joan Jemaiyo Sang,500,1,Nipro/ other  Acid Concentrate 5L,2843000
506,2018-07-03,OTCINV3335,Joan Jemaiyo Sang,1300,1,Nipro/All types Dialysers,2843000
507,2018-07-03,OTCINV3335,Joan Jemaiyo Sang,1000,1,Nursing,2843000
508,2018-07-03,OTCINV3335,Joan Jemaiyo Sang,100,2,Normal saline,2843000
509,2018-07-03,OTCINV3335,Joan Jemaiyo Sang,200,1,Consumables,2843000
510,2018-07-03,OTCINV3335,Joan Jemaiyo Sang,10,10,Clean Gloves,2843000
511,2018-07-03,OTCINV3335,Joan Jemaiyo Sang,130,1,Primapore ( LEUKOMED),2843000
512,2018-07-03,OTCINV3335,Joan Jemaiyo Sang,400,1,Food,2843000
513,2018-07-03,OTCINV3335,Joan Jemaiyo Sang,150,1,Random Blood Sugar (RBS),2843000
514,2018-07-03,OTCINV3335,Joan Jemaiyo Sang,10,3,syringes 10ml,2843000
515,2018-07-03,OTCINV3335,Joan Jemaiyo Sang,20,3,syringes 20ml,2843000
516,2018-07-03,OTCINV3335,Joan Jemaiyo Sang,5,2,Syringes 5ml,2843000
517,2018-07-03,OTCINV3335,Joan Jemaiyo Sang,2,2,Needle G23,2843000
518,2018-07-03,OTCINV3335,Joan Jemaiyo Sang,1200,1,Erythropoietin 4000 IU (EPOFIT),2843000
519,2018-07-03,OTCINV3335,Joan Jemaiyo Sang,3266,1,Dialysis Outpatient,2843000
520,2018-07-04,OTCINV3336,Jane Waithera Kiarie,500,1,Nipro / All types bloodlines,5423000
521,2018-07-04,OTCINV3336,Jane Waithera Kiarie,450,1,Nipro Bicarbonate Catridge,5423000
522,2018-07-04,OTCINV3336,Jane Waithera Kiarie,500,1,Nipro/ other  Acid Concentrate 5L,5423000
523,2018-07-04,OTCINV3336,Jane Waithera Kiarie,1300,1,Nipro/All types Dialysers,5423000
524,2018-07-04,OTCINV3336,Jane Waithera Kiarie,1000,1,Nursing,5423000
525,2018-07-04,OTCINV3336,Jane Waithera Kiarie,100,2,Normal saline,5423000
526,2018-07-04,OTCINV3336,Jane Waithera Kiarie,130,1,Primapore ( LEUKOMED),5423000
527,2018-07-04,OTCINV3336,Jane Waithera Kiarie,200,1,Consumables,5423000
528,2018-07-04,OTCINV3336,Jane Waithera Kiarie,10,10,Clean Gloves,5423000
529,2018-07-04,OTCINV3336,Jane Waithera Kiarie,300,1,CitraLock 4% 5 ml vial,5423000
530,2018-07-04,OTCINV3336,Jane Waithera Kiarie,400,1,Heparin 5000iu/ml I.M/I.V inj,5423000
531,2018-07-04,OTCINV3336,Jane Waithera Kiarie,400,1,Food,5423000
532,2018-07-04,OTCINV3336,Jane Waithera Kiarie,10,3,syringes 10ml,5423000
533,2018-07-04,OTCINV3336,Jane Waithera Kiarie,20,4,syringes 20ml,5423000
534,2018-07-04,OTCINV3336,Jane Waithera Kiarie,5,2,Syringes 5ml,5423000
535,2018-07-04,OTCINV3336,Jane Waithera Kiarie,1200,1,Erythropoietin 4000 IU (EPOFIT),5423000
536,2018-07-04,OTCINV3336,Jane Waithera Kiarie,52,30,Ideos Chewable Tabs ( Calcium Bicarbonate),5423000
537,2018-07-04,OTCINV3336,Jane Waithera Kiarie,1640,1,Dialysis Outpatient,5423000
538,2018-07-04,OTCINV3337,Leba M'mbone,2500,1,Consultation -  Dr. Koech,7318000
539,2018-07-04,OTCINV3337,Leba M'mbone,1500,1,ECG,7318000
540,2018-07-04,OTCINV3337,Leba M'mbone,900,1,Full Blood Count (FBC),7318000
541,2018-07-04,OTCINV3337,Leba M'mbone,2000,1,Urea/Creatinine/Electrolytes(KFT),7318000
542,2018-07-04,OTCINV3337,Leba M'mbone,1000,1,Uric Acid Levels,7318000
543,2018-07-04,OTCINV3337,Leba M'mbone,500,1,Phosphorus levels,7318000
544,2018-07-04,OTCINV3337,Leba M'mbone,250,1,Random Blood Sugar (RBS),7318000
545,2018-07-04,OTCINV3337,Leba M'mbone,250,1,Urinalysis/microscopy,7318000
546,2018-07-04,OTCINV3337,Leba M'mbone,25,30,Atorvastatin 20 mg Tabs ( COLESTOP),7318000
547,2018-07-04,OTCINV3337,Leba M'mbone,20,30,Presartan- H Tabs,7318000
548,2018-07-04,OTCINV3338,Ann Katini Kiungu,250,1,Urinalysis/microscopy,3907000
549,2018-07-04,OTCINV3338,Ann Katini Kiungu,2500,1,Urine Protein Creatine Ratio,3907000
550,2018-07-04,OTCINV3338,Ann Katini Kiungu,3500,1,ANA LANCET,3907000
551,2018-07-04,OTCINV3338,Ann Katini Kiungu,2000,1,C3,3907000
552,2018-07-04,OTCINV3338,Ann Katini Kiungu,2000,1,C-4,3907000
553,2018-07-04,OTCINV3338,Ann Katini Kiungu,10000,1,T - Cell Cross Match,3907000
554,2018-07-04,OTCINV3338,Ann Katini Kiungu,80,3,"Branulas G 18, 20, 22 BD Type",3907000
555,2018-07-04,OTCINV3338,Ann Katini Kiungu,150,1,Branula G 24 WITH Port BD Type,3907000
556,2018-07-04,OTCINV3338,Ann Katini Kiungu,100,10,Normal saline,3907000
557,2018-07-04,OTCINV3338,Ann Katini Kiungu,12000,5,Human Albumin 20% 100ML,3907000
558,2018-07-04,OTCINV3338,Ann Katini Kiungu,28000,1,Plasma flux Dialyzer,3907000
559,2018-07-04,OTCINV3338,Ann Katini Kiungu,10000,1,Plasmapheresis Procedure,3907000
560,2018-07-04,OTCINV3338,Ann Katini Kiungu,600,1,Clean gloves ( BOX),3907000
561,2018-07-04,OTCINV3338,Ann Katini Kiungu,35,2,Blood Administration Set,3907000
562,2018-07-04,OTCINV3338,Ann Katini Kiungu,35,2,Giving set,3907000
563,2018-07-04,OTCINV3338,Ann Katini Kiungu,250,1,Paracetamol  1000 mg iv. ( INFLUGAN),3907000
564,2018-07-04,OTCINV3338,Ann Katini Kiungu,30,1,Metoclopramide Injection(Metomed 10Mg/2ml,3907000
565,2018-07-04,OTCINV3338,Ann Katini Kiungu,10,1,Surgical Blades,3907000
566,2018-07-04,OTCINV3338,Ann Katini Kiungu,400,1,Heparin 5000iu/ml I.M/I.V inj,3907000
567,2018-07-04,OTCINV3338,Ann Katini Kiungu,10,1,Masks,3907000
568,2018-07-04,OTCINV3338,Ann Katini Kiungu,10,1,Surgeon  Caps,3907000
569,2018-07-04,OTCINV3338,Ann Katini Kiungu,400,1,Ondansetron inj ( EMADON) 4 MG/ 2ML,3907000
570,2018-07-04,OTCINV3338,Ann Katini Kiungu,20,7,syringes 20ml,3907000
571,2018-07-04,OTCINV3338,Ann Katini Kiungu,10,3,syringes 10ml,3907000
572,2018-07-04,OTCINV3338,Ann Katini Kiungu,5,2,Syringes 5ml,3907000
573,2018-07-04,OTCINV3338,Ann Katini Kiungu,2,4,Needle G23,3907000
574,2018-07-04,OTCINV3338,Ann Katini Kiungu,500,1,Dressing Pack,3907000
575,2018-07-04,OTCINV3339,Gilbert Rotich,500,1,Nipro / All types bloodlines,6980000
576,2018-07-04,OTCINV3339,Gilbert Rotich,450,1,Nipro Bicarbonate Catridge,6980000
577,2018-07-04,OTCINV3339,Gilbert Rotich,500,1,Nipro/ other  Acid Concentrate 5L,6980000
578,2018-07-04,OTCINV3339,Gilbert Rotich,1300,1,Nipro/All types Dialysers,6980000
579,2018-07-04,OTCINV3339,Gilbert Rotich,1000,1,Nursing,6980000
580,2018-07-04,OTCINV3339,Gilbert Rotich,100,2,Normal saline,6980000
581,2018-07-04,OTCINV3339,Gilbert Rotich,200,1,Consumables,6980000
582,2018-07-04,OTCINV3339,Gilbert Rotich,10,10,Clean Gloves,6980000
583,2018-07-04,OTCINV3339,Gilbert Rotich,130,1,Primapore ( LEUKOMED),6980000
584,2018-07-04,OTCINV3339,Gilbert Rotich,400,1,Food,6980000
585,2018-07-04,OTCINV3339,Gilbert Rotich,10,3,syringes 10ml,6980000
586,2018-07-04,OTCINV3339,Gilbert Rotich,20,3,syringes 20ml,6980000
587,2018-07-04,OTCINV3339,Gilbert Rotich,5,2,Syringes 5ml,6980000
588,2018-07-04,OTCINV3339,Gilbert Rotich,2,2,Needle G23,6980000
589,2018-07-04,OTCINV3339,Gilbert Rotich,300,1,CitraLock 4% 5 ml vial,6980000
590,2018-07-04,OTCINV3339,Gilbert Rotich,400,1,Heparin 5000iu/ml I.M/I.V inj,6980000
591,2018-07-04,OTCINV3339,Gilbert Rotich,10,1,Masks,6980000
592,2018-07-04,OTCINV3339,Gilbert Rotich,10,1,Surgeon  Caps,6980000
593,2018-07-04,OTCINV3339,Gilbert Rotich,3396,1,Dialysis Outpatient,6980000
594,2018-07-04,OTCINV3340,David Limo,2500,1,Consultation -  Dr. Koech,7584000
595,2018-07-04,OTCINV3340,David Limo,80,30,Ritor-SR,7584000
596,2018-07-04,OTCINV3340,David Limo,20,12,Buscopan Tabs 10mg (ORIGINAL),7584000
597,2018-07-04,OTCINV3342,Emily Chepkemoi Mutai,1500,1,Consultation Dr. Maritim,7584000
598,2018-07-04,OTCINV3342,Emily Chepkemoi Mutai,55,30,Septrin DS Tabs,7584000
599,2018-07-04,OTCINV3342,Emily Chepkemoi Mutai,10000,1,VIRAL LOAD,7584000
600,2018-07-04,OTCINV3342,Emily Chepkemoi Mutai,4500,1,Cd4/Cd8,7584000
601,2018-07-04,OTCINV3343,Alice Chebet Kokoyo,1500,1,Consultation Dr. Maritim,7584000
602,2018-07-04,OTCINV3344,Francis  Kipsaat Lagat,500,1,Nipro / All types bloodlines,3526000
603,2018-07-04,OTCINV3344,Francis  Kipsaat Lagat,450,1,Nipro Bicarbonate Catridge,3526000
604,2018-07-04,OTCINV3344,Francis  Kipsaat Lagat,500,1,Nipro/ other  Acid Concentrate 5L,3526000
605,2018-07-04,OTCINV3344,Francis  Kipsaat Lagat,1300,1,Nipro/All types Dialysers,3526000
606,2018-07-04,OTCINV3344,Francis  Kipsaat Lagat,1000,1,Nursing,3526000
607,2018-07-04,OTCINV3344,Francis  Kipsaat Lagat,100,3,Normal saline,3526000
608,2018-07-04,OTCINV3344,Francis  Kipsaat Lagat,200,1,Consumables,3526000
609,2018-07-04,OTCINV3344,Francis  Kipsaat Lagat,10,10,Clean Gloves,3526000
610,2018-07-04,OTCINV3344,Francis  Kipsaat Lagat,130,1,Primapore ( LEUKOMED),3526000
611,2018-07-04,OTCINV3344,Francis  Kipsaat Lagat,300,1,CitraLock 4% 5 ml vial,3526000
612,2018-07-04,OTCINV3344,Francis  Kipsaat Lagat,400,1,Food,3526000
613,2018-07-04,OTCINV3344,Francis  Kipsaat Lagat,10,3,syringes 10ml,3526000
614,2018-07-04,OTCINV3344,Francis  Kipsaat Lagat,20,3,syringes 20ml,3526000
615,2018-07-04,OTCINV3344,Francis  Kipsaat Lagat,5,2,Syringes 5ml,3526000
616,2018-07-04,OTCINV3344,Francis  Kipsaat Lagat,2,2,Needle G23,3526000
617,2018-07-04,OTCINV3344,Francis  Kipsaat Lagat,1200,1,Erythropoietin 4000 IU (EPOFIT),3526000
618,2018-07-04,OTCINV3344,Francis  Kipsaat Lagat,3016,1,Dialysis Outpatient,3526000
619,2018-07-04,OTCINV3345,Charles Pwaipwai Chepkania,500,1,Nipro / All types bloodlines,5857000
620,2018-07-04,OTCINV3345,Charles Pwaipwai Chepkania,450,1,Nipro Bicarbonate Catridge,5857000
621,2018-07-04,OTCINV3345,Charles Pwaipwai Chepkania,500,1,Nipro/ other  Acid Concentrate 5L,5857000
622,2018-07-04,OTCINV3345,Charles Pwaipwai Chepkania,1300,1,Nipro/All types Dialysers,5857000
623,2018-07-04,OTCINV3345,Charles Pwaipwai Chepkania,1000,1,Nursing,5857000
624,2018-07-04,OTCINV3345,Charles Pwaipwai Chepkania,100,2,Normal saline,5857000
625,2018-07-04,OTCINV3345,Charles Pwaipwai Chepkania,200,1,Consumables,5857000
626,2018-07-04,OTCINV3345,Charles Pwaipwai Chepkania,10,10,Clean Gloves,5857000
627,2018-07-04,OTCINV3345,Charles Pwaipwai Chepkania,130,1,Primapore ( LEUKOMED),5857000
628,2018-07-04,OTCINV3345,Charles Pwaipwai Chepkania,300,1,CitraLock 4% 5 ml vial,5857000
629,2018-07-04,OTCINV3345,Charles Pwaipwai Chepkania,400,1,Food,5857000
630,2018-07-04,OTCINV3345,Charles Pwaipwai Chepkania,10,3,syringes 10ml,5857000
631,2018-07-04,OTCINV3345,Charles Pwaipwai Chepkania,20,4,syringes 20ml,5857000
632,2018-07-04,OTCINV3345,Charles Pwaipwai Chepkania,5,2,Syringes 5ml,5857000
633,2018-07-04,OTCINV3345,Charles Pwaipwai Chepkania,2,2,Needle G23,5857000
634,2018-07-04,OTCINV3345,Charles Pwaipwai Chepkania,1200,1,Erythropoietin 4000 IU (EPOFIT),5857000
635,2018-07-04,OTCINV3345,Charles Pwaipwai Chepkania,3096,1,Dialysis Outpatient,5857000
636,2018-07-04,OTCINV3346,Kiptisha Kipsang Chepsiror,500,1,Nipro / All types bloodlines,5325000
637,2018-07-04,OTCINV3346,Kiptisha Kipsang Chepsiror,450,1,Nipro Bicarbonate Catridge,5325000
638,2018-07-04,OTCINV3346,Kiptisha Kipsang Chepsiror,500,1,Nipro/ other  Acid Concentrate 5L,5325000
639,2018-07-04,OTCINV3346,Kiptisha Kipsang Chepsiror,1300,1,Nipro/All types Dialysers,5325000
640,2018-07-04,OTCINV3346,Kiptisha Kipsang Chepsiror,1000,1,Nursing,5325000
641,2018-07-04,OTCINV3346,Kiptisha Kipsang Chepsiror,100,3,Normal saline,5325000
642,2018-07-04,OTCINV3346,Kiptisha Kipsang Chepsiror,200,1,Consumables,5325000
643,2018-07-04,OTCINV3346,Kiptisha Kipsang Chepsiror,10,10,Clean Gloves,5325000
644,2018-07-04,OTCINV3346,Kiptisha Kipsang Chepsiror,400,1,Food,5325000
645,2018-07-04,OTCINV3346,Kiptisha Kipsang Chepsiror,130,1,Primapore ( LEUKOMED),5325000
646,2018-07-04,OTCINV3346,Kiptisha Kipsang Chepsiror,1200,1,Erythropoietin 4000 IU (EPOFIT),5325000
647,2018-07-04,OTCINV3346,Kiptisha Kipsang Chepsiror,10,3,syringes 10ml,5325000
648,2018-07-04,OTCINV3346,Kiptisha Kipsang Chepsiror,20,3,syringes 20ml,5325000
649,2018-07-04,OTCINV3346,Kiptisha Kipsang Chepsiror,5,2,Syringes 5ml,5325000
650,2018-07-04,OTCINV3346,Kiptisha Kipsang Chepsiror,2,2,Needle G23,5325000
651,2018-07-04,OTCINV3346,Kiptisha Kipsang Chepsiror,3316,1,Dialysis Outpatient,5325000
652,2018-07-04,OTCINV3347,Perez  Auma Jamwa,500,1,Nipro / All types bloodlines,5346000
653,2018-07-04,OTCINV3347,Perez  Auma Jamwa,450,1,Nipro Bicarbonate Catridge,5346000
654,2018-07-04,OTCINV3347,Perez  Auma Jamwa,500,1,Nipro/ other  Acid Concentrate 5L,5346000
655,2018-07-04,OTCINV3347,Perez  Auma Jamwa,1300,1,Nipro/All types Dialysers,5346000
656,2018-07-04,OTCINV3347,Perez  Auma Jamwa,100,2,Normal saline,5346000
657,2018-07-04,OTCINV3347,Perez  Auma Jamwa,200,1,Consumables,5346000
658,2018-07-04,OTCINV3347,Perez  Auma Jamwa,10,10,Clean Gloves,5346000
659,2018-07-04,OTCINV3347,Perez  Auma Jamwa,130,1,Primapore ( LEUKOMED),5346000
660,2018-07-04,OTCINV3347,Perez  Auma Jamwa,400,1,Food,5346000
661,2018-07-04,OTCINV3347,Perez  Auma Jamwa,1000,1,Nursing,5346000
662,2018-07-04,OTCINV3347,Perez  Auma Jamwa,300,1,CitraLock 4% 5 ml vial,5346000
663,2018-07-04,OTCINV3347,Perez  Auma Jamwa,10,1,syringes 10ml,5346000
664,2018-07-04,OTCINV3347,Perez  Auma Jamwa,20,3,syringes 20ml,5346000
665,2018-07-04,OTCINV3347,Perez  Auma Jamwa,5,3,Syringes 5ml,5346000
666,2018-07-04,OTCINV3347,Perez  Auma Jamwa,2,2,Needle G23,5346000
667,2018-07-04,OTCINV3347,Perez  Auma Jamwa,4331,1,Dialysis Outpatient,5346000
668,2018-07-04,OTCINV3348,Ann Katini Kiungu,500,1,Nipro / All types bloodlines,3907000
669,2018-07-04,OTCINV3348,Ann Katini Kiungu,450,1,Nipro Bicarbonate Catridge,3907000
670,2018-07-04,OTCINV3348,Ann Katini Kiungu,500,1,Nipro/ other  Acid Concentrate 5L,3907000
671,2018-07-04,OTCINV3348,Ann Katini Kiungu,1300,1,Nipro/All types Dialysers,3907000
672,2018-07-04,OTCINV3348,Ann Katini Kiungu,1000,1,Nursing,3907000
673,2018-07-04,OTCINV3348,Ann Katini Kiungu,100,2,Normal saline,3907000
674,2018-07-04,OTCINV3348,Ann Katini Kiungu,200,1,Consumables,3907000
675,2018-07-04,OTCINV3348,Ann Katini Kiungu,10,10,Clean Gloves,3907000
676,2018-07-04,OTCINV3348,Ann Katini Kiungu,130,1,Primapore ( LEUKOMED),3907000
677,2018-07-04,OTCINV3348,Ann Katini Kiungu,400,1,Food,3907000
678,2018-07-04,OTCINV3348,Ann Katini Kiungu,300,1,CitraLock 4% 5 ml vial,3907000
679,2018-07-04,OTCINV3348,Ann Katini Kiungu,10,3,syringes 10ml,3907000
680,2018-07-04,OTCINV3348,Ann Katini Kiungu,20,4,syringes 20ml,3907000
681,2018-07-04,OTCINV3348,Ann Katini Kiungu,5,3,Syringes 5ml,3907000
682,2018-07-04,OTCINV3348,Ann Katini Kiungu,2,2,Needle G23,3907000
683,2018-07-04,OTCINV3348,Ann Katini Kiungu,400,1,Heparin 5000iu/ml I.M/I.V inj,3907000
684,2018-07-04,OTCINV3348,Ann Katini Kiungu,3891,1,Dialysis Outpatient,3907000
685,2018-07-05,OTCINV3349,Esther Mutai,500,1,Nipro / All types bloodlines,76000
686,2018-07-05,OTCINV3349,Esther Mutai,450,1,Nipro Bicarbonate Catridge,76000
687,2018-07-05,OTCINV3349,Esther Mutai,500,1,Nipro/ other  Acid Concentrate 5L,76000
688,2018-07-05,OTCINV3349,Esther Mutai,1300,1,Nipro/All types Dialysers,76000
689,2018-07-05,OTCINV3349,Esther Mutai,1000,1,Nursing,76000
690,2018-07-05,OTCINV3349,Esther Mutai,100,2,Normal saline,76000
691,2018-07-05,OTCINV3349,Esther Mutai,200,1,Consumables,76000
692,2018-07-05,OTCINV3349,Esther Mutai,10,10,Clean Gloves,76000
693,2018-07-05,OTCINV3349,Esther Mutai,130,1,Primapore ( LEUKOMED),76000
694,2018-07-05,OTCINV3349,Esther Mutai,500,1,Food,76000
695,2018-07-05,OTCINV3349,Esther Mutai,300,1,CitraLock 4% 5 ml vial,76000
696,2018-07-05,OTCINV3349,Esther Mutai,400,1,Heparin 5000iu/ml I.M/I.V inj,76000
697,2018-07-05,OTCINV3349,Esther Mutai,1200,1,Erythropoietin 4000 IU (EPOFIT),76000
698,2018-07-05,OTCINV3349,Esther Mutai,10,3,syringes 10ml,76000
699,2018-07-05,OTCINV3349,Esther Mutai,20,3,syringes 20ml,76000
700,2018-07-05,OTCINV3349,Esther Mutai,5,2,Syringes 5ml,76000
701,2018-07-05,OTCINV3349,Esther Mutai,2,2,Needle G23,76000
702,2018-07-05,OTCINV3349,Esther Mutai,2616,1,Dialysis Outpatient,76000
703,2018-07-05,OTCINV3350,Joel Osiemo Omwoyo,900,1,Full Blood Count (FBC),2904000
704,2018-07-05,OTCINV3350,Joel Osiemo Omwoyo,2000,1,Urea/Creatinine/Electrolytes(KFT),2904000
705,2018-07-05,OTCINV3350,Joel Osiemo Omwoyo,250,1,RBS,2904000
706,2018-07-05,OTCINV3350,Joel Osiemo Omwoyo,95,10,Cefixim Caps 200mg (Orix) 10’s,2904000
707,2018-07-05,OTCINV3350,Joel Osiemo Omwoyo,80,30,Ritor-SR,2904000
708,2018-07-05,OTCINV3350,Joel Osiemo Omwoyo,60,15,Diamacron MR 60mg,2904000
709,2018-07-05,OTCINV3351,Jackson Tikiyia Munka,250,1,Blood grouping/Du test,6341000
710,2018-07-05,OTCINV3351,Jackson Tikiyia Munka,500,1,HIV Test,6341000
711,2018-07-05,OTCINV3351,Jackson Tikiyia Munka,500,1,Hepatitis BsAg - Rapid,6341000
712,2018-07-05,OTCINV3351,Jackson Tikiyia Munka,500,1,Hepatitis C Test - Rapid,6341000
713,2018-07-05,OTCINV3351,Jackson Tikiyia Munka,500,1,VDRL,6341000
714,2018-07-05,OTCINV3351,Jackson Tikiyia Munka,250,1,Urinalysis/microscopy,6341000
715,2018-07-05,OTCINV3351,Jackson Tikiyia Munka,2000,1,Urea/Creatinine/Electrolytes(KFT),6341000
716,2018-07-05,OTCINV3351,Jackson Tikiyia Munka,900,1,Full Blood Count (FBC),6341000
717,2018-07-05,OTCINV3351,Jackson Tikiyia Munka,1500,1,Consultation-Review Dr Koech,6341000
718,2018-07-05,OTCINV3352,Justina  Cherugin Chepngetich,2000,1,Consultation -  Dr. Koech,4776000
719,2018-07-05,OTCINV3352,Justina  Cherugin Chepngetich,2000,1,Urea/Creatinine/Electrolytes(KFT),4776000
720,2018-07-05,OTCINV3352,Justina  Cherugin Chepngetich,150,3,Nemiderm ABS 10x25 CM,4776000
721,2018-07-05,OTCINV3352,Justina  Cherugin Chepngetich,35,1,Surgical gloves,4776000
722,2018-07-05,OTCINV3352,Justina  Cherugin Chepngetich,500,1,Dressing,4776000
723,2018-07-05,OTCINV3352,Justina  Cherugin Chepngetich,15,1,Actal Tums Tabs,4776000
724,2018-07-05,OTCINV3353,Peter Macharia ST  LUKE'S,500,1,Nipro / All types bloodlines,6378000
725,2018-07-05,OTCINV3353,Peter Macharia ST  LUKE'S,450,1,Nipro Bicarbonate Catridge,6378000
726,2018-07-05,OTCINV3353,Peter Macharia ST  LUKE'S,500,1,Nipro/ other  Acid Concentrate 5L,6378000
727,2018-07-05,OTCINV3353,Peter Macharia ST  LUKE'S,1300,1,Nipro/All types Dialysers,6378000
728,2018-07-05,OTCINV3353,Peter Macharia ST  LUKE'S,1000,1,Nursing,6378000
729,2018-07-05,OTCINV3353,Peter Macharia ST  LUKE'S,100,2,Normal saline,6378000
730,2018-07-05,OTCINV3353,Peter Macharia ST  LUKE'S,200,1,Consumables,6378000
731,2018-07-05,OTCINV3353,Peter Macharia ST  LUKE'S,10,1,Clean Gloves,6378000
732,2018-07-05,OTCINV3353,Peter Macharia ST  LUKE'S,130,1,Primapore ( LEUKOMED),6378000
733,2018-07-05,OTCINV3353,Peter Macharia ST  LUKE'S,400,1,Food,6378000
734,2018-07-05,OTCINV3353,Peter Macharia ST  LUKE'S,300,1,CitraLock 4% 5 ml vial,6378000
735,2018-07-05,OTCINV3353,Peter Macharia ST  LUKE'S,400,1,Heparin 5000iu/ml I.M/I.V inj,6378000
736,2018-07-05,OTCINV3353,Peter Macharia ST  LUKE'S,10,3,syringes 10ml,6378000
737,2018-07-05,OTCINV3353,Peter Macharia ST  LUKE'S,20,4,syringes 20ml,6378000
738,2018-07-05,OTCINV3353,Peter Macharia ST  LUKE'S,5,2,Syringes 5ml,6378000
739,2018-07-05,OTCINV3353,Peter Macharia ST  LUKE'S,2,2,Needle G23,6378000
740,2018-07-05,OTCINV3353,Peter Macharia ST  LUKE'S,10,1,Masks,6378000
741,2018-07-05,OTCINV3353,Peter Macharia ST  LUKE'S,10,1,Surgeon  Caps,6378000
742,2018-07-05,OTCINV3353,Peter Macharia ST  LUKE'S,3966,1,Dialysis Outpatient,6378000
743,2018-07-05,OTCINV3354,Peninah Cheruto,1500,1,Consultation Review - Dr. Kirui,76000
744,2018-07-05,OTCINV3354,Peninah Cheruto,60,6,Imodium  Caps  2 mg,76000
745,2018-07-05,OTCINV3354,Peninah Cheruto,15,14,Ciprofloxacin 500mg Tabs (CIPROINTA),76000
746,2018-07-05,OTCINV3354,Peninah Cheruto,15,10,Tramadol Caps(Domadol) 50mg,76000
747,2018-07-05,OTCINV3354,Peninah Cheruto,1,30,Metronidazole Tabs  200 mg.,76000
748,2018-07-05,OTCINV3355,Job Kibiwot Sitienei,500,1,Nipro / All types bloodlines,3088000
749,2018-07-05,OTCINV3355,Job Kibiwot Sitienei,450,1,Nipro Bicarbonate Catridge,3088000
750,2018-07-05,OTCINV3355,Job Kibiwot Sitienei,500,1,Nipro/ other  Acid Concentrate 5L,3088000
751,2018-07-05,OTCINV3355,Job Kibiwot Sitienei,1300,1,Nipro/All types Dialysers,3088000
752,2018-07-05,OTCINV3355,Job Kibiwot Sitienei,1000,1,Nursing,3088000
753,2018-07-05,OTCINV3355,Job Kibiwot Sitienei,100,2,Normal saline,3088000
754,2018-07-05,OTCINV3355,Job Kibiwot Sitienei,150,1,Dextrose 50%,3088000
755,2018-07-05,OTCINV3355,Job Kibiwot Sitienei,130,1,Primapore ( LEUKOMED),3088000
756,2018-07-05,OTCINV3355,Job Kibiwot Sitienei,200,1,Consumables,3088000
757,2018-07-05,OTCINV3355,Job Kibiwot Sitienei,10,10,Clean Gloves,3088000
758,2018-07-05,OTCINV3355,Job Kibiwot Sitienei,400,1,Food,3088000
759,2018-07-05,OTCINV3355,Job Kibiwot Sitienei,300,1,CitraLock 4% 5 ml vial,3088000
760,2018-07-05,OTCINV3355,Job Kibiwot Sitienei,400,1,Heparin 5000iu/ml I.M/I.V inj,3088000
761,2018-07-05,OTCINV3355,Job Kibiwot Sitienei,10,3,syringes 10ml,3088000
762,2018-07-05,OTCINV3355,Job Kibiwot Sitienei,20,4,syringes 20ml,3088000
763,2018-07-05,OTCINV3355,Job Kibiwot Sitienei,5,2,Syringes 5ml,3088000
764,2018-07-05,OTCINV3355,Job Kibiwot Sitienei,2,2,Needle G23,3088000
765,2018-07-05,OTCINV3355,Job Kibiwot Sitienei,3746,1,Dialysis Outpatient,3088000
766,2018-07-05,OTCINV3356,Johana Kipkemboi Tunge,1500,1,Consultation -  Dr. Koech,7597000
767,2018-07-05,OTCINV3357,Job Kibiwot Sitienei,45,10,Terbinafine Tabs 250 mg (TERBINAFORCE),3088000
768,2018-07-05,OTCINV3358,Musa Kirorei Sawe,2000,1,Consultation-Review Dr Koech,866000
769,2018-07-05,OTCINV3359,Micah K. Munai,2000,1,Consultation -  Dr. Koech,7606000
770,2018-07-05,OTCINV3359,Micah K. Munai,25,30,Amlodipine 5 mg Tabs (AMLIBON),7606000
771,2018-07-05,OTCINV3359,Micah K. Munai,92,30,Tamsulosin Tabs 0.4mg (CONTIFLO OD),7606000
772,2018-07-05,OTCINV3359,Micah K. Munai,180,8,Solifenacin Tabs 5 mg (SOLIFEN),7606000
773,2018-07-05,OTCINV3359,Micah K. Munai,280,1,Cital syrup 100ml,7606000
774,2018-07-05,OTCINV3359,Micah K. Munai,40,10,Esomeprazole 40 mg Tabs ( ESOP),7606000
775,2018-07-05,OTCINV3360,Elizabeth  C. Seile,2500,1,Consultation -  Dr. Koech,7606000
776,2018-07-05,OTCINV3360,Elizabeth  C. Seile,120,9,Neurogame Tabs,7606000
777,2018-07-05,OTCINV3361,Rheenen Van Hendrikus,2000,1,Consultation -  Dr. Koech,1283000
778,2018-07-05,OTCINV3362,Yusuf Ibrahim Chandbhai,2000,1,Urea/Creatinine/Electrolytes(KFT),3010000
779,2018-07-05,OTCINV3363,George Mukenya Mafura,500,1,Nipro / All types bloodlines,1701000
780,2018-07-05,OTCINV3363,George Mukenya Mafura,450,1,Nipro Bicarbonate Catridge,1701000
781,2018-07-05,OTCINV3363,George Mukenya Mafura,500,1,Nipro/ other  Acid Concentrate 5L,1701000
782,2018-07-05,OTCINV3363,George Mukenya Mafura,1300,1,Nipro/All types Dialysers,1701000
783,2018-07-05,OTCINV3363,George Mukenya Mafura,100,3,Normal saline,1701000
784,2018-07-05,OTCINV3363,George Mukenya Mafura,1000,1,Nursing,1701000
785,2018-07-05,OTCINV3363,George Mukenya Mafura,130,1,Primapore ( LEUKOMED),1701000
786,2018-07-05,OTCINV3363,George Mukenya Mafura,200,1,Consumables,1701000
787,2018-07-05,OTCINV3363,George Mukenya Mafura,400,1,Food,1701000
788,2018-07-05,OTCINV3363,George Mukenya Mafura,10,10,Clean Gloves,1701000
789,2018-07-05,OTCINV3363,George Mukenya Mafura,300,1,CitraLock 4% 5 ml vial,1701000
790,2018-07-05,OTCINV3363,George Mukenya Mafura,10,3,syringes 10ml,1701000
791,2018-07-05,OTCINV3363,George Mukenya Mafura,20,3,syringes 20ml,1701000
792,2018-07-05,OTCINV3363,George Mukenya Mafura,5,2,Syringes 5ml,1701000
793,2018-07-05,OTCINV3363,George Mukenya Mafura,10,1,Masks,1701000
794,2018-07-05,OTCINV3363,George Mukenya Mafura,10,1,Surgeon  Caps,1701000
795,2018-07-05,OTCINV3363,George Mukenya Mafura,4200,1,Dialysis Outpatient,1701000
796,2018-07-05,OTCINV3365,Mary kurgat,500,1,Nipro / All types bloodlines,101000
797,2018-07-05,OTCINV3365,Mary kurgat,450,1,Nipro Bicarbonate Catridge,101000
798,2018-07-05,OTCINV3365,Mary kurgat,500,1,Nipro/ other  Acid Concentrate 5L,101000
799,2018-07-05,OTCINV3365,Mary kurgat,1300,1,Nipro/All types Dialysers,101000
800,2018-07-05,OTCINV3365,Mary kurgat,1000,1,Nursing,101000
801,2018-07-05,OTCINV3365,Mary kurgat,100,3,Normal saline,101000
802,2018-07-05,OTCINV3365,Mary kurgat,130,1,Primapore ( LEUKOMED),101000
803,2018-07-05,OTCINV3365,Mary kurgat,200,1,Consumables,101000
804,2018-07-05,OTCINV3365,Mary kurgat,10,10,Clean Gloves,101000
805,2018-07-05,OTCINV3365,Mary kurgat,300,1,CitraLock 4% 5 ml vial,101000
806,2018-07-05,OTCINV3365,Mary kurgat,400,1,Food,101000
807,2018-07-05,OTCINV3365,Mary kurgat,10,1,syringes 10ml,101000
808,2018-07-05,OTCINV3365,Mary kurgat,20,4,syringes 20ml,101000
809,2018-07-05,OTCINV3365,Mary kurgat,5,2,Syringes 5ml,101000
810,2018-07-05,OTCINV3365,Mary kurgat,2,1,Needle G23,101000
811,2018-07-05,OTCINV3365,Mary kurgat,4218,1,Dialysis Outpatient,101000
812,2018-07-05,OTCINV3366,Joan Jemaiyo Sang,900,1,Full Blood Count (FBC),2843000
813,2018-07-05,OTCINV3366,Joan Jemaiyo Sang,2000,1,Urea/Creatinine/Electrolytes(KFT),2843000
814,2018-07-05,OTCINV3366,Joan Jemaiyo Sang,1500,1,TSH,2843000
815,2018-07-05,OTCINV3366,Joan Jemaiyo Sang,2000,1,C Reactive Protein,2843000
816,2018-07-05,OTCINV3366,Joan Jemaiyo Sang,1500,1,Consultation Fee - Dr. Karoney,2843000
817,2018-07-05,OTCINV3366,Joan Jemaiyo Sang,2500,1,Troponin I,2843000
818,2018-07-05,OTCINV3366,Joan Jemaiyo Sang,2000,1,CKMB,2843000
819,2018-07-05,OTCINV3366,Joan Jemaiyo Sang,130,1,Primapore ( LEUKOMED),2843000
820,2018-07-05,OTCINV3366,Joan Jemaiyo Sang,20,2,Frusemide Inj 10MG/2ml,2843000
821,2018-07-05,OTCINV3366,Joan Jemaiyo Sang,5,1,Syringes 5ml,2843000
822,2018-07-05,OTCINV3366,Joan Jemaiyo Sang,2,1,Needle G23,2843000
823,2018-07-05,OTCINV3366,Joan Jemaiyo Sang,5,30,Aspirin Tabs (Ascard) 75mg,2843000
824,2018-07-05,OTCINV3366,Joan Jemaiyo Sang,48,20,Lasix Tabs 40m,2843000
825,2018-07-05,OTCINV3366,Joan Jemaiyo Sang,620,1,Lactulose(LACTULAC) SOL 200ml,2843000
826,2018-07-05,OTCINV3367,William Njoroge,500,1,Nipro / All types bloodlines,7058000
827,2018-07-05,OTCINV3367,William Njoroge,450,1,Nipro Bicarbonate Catridge,7058000
828,2018-07-05,OTCINV3367,William Njoroge,500,1,Nipro/ other  Acid Concentrate 5L,7058000
829,2018-07-05,OTCINV3367,William Njoroge,1300,1,Nipro/All types Dialysers,7058000
830,2018-07-05,OTCINV3367,William Njoroge,100,3,Normal saline,7058000
831,2018-07-05,OTCINV3367,William Njoroge,1000,1,Nursing,7058000
832,2018-07-05,OTCINV3367,William Njoroge,200,1,Consumables,7058000
833,2018-07-05,OTCINV3367,William Njoroge,10,10,Clean Gloves,7058000
834,2018-07-05,OTCINV3367,William Njoroge,100,1,Fistula Needles Pers,7058000
835,2018-07-05,OTCINV3367,William Njoroge,400,1,Food,7058000
836,2018-07-05,OTCINV3367,William Njoroge,130,1,Primapore ( LEUKOMED),7058000
837,2018-07-05,OTCINV3367,William Njoroge,300,1,CitraLock 4% 5 ml vial,7058000
838,2018-07-05,OTCINV3367,William Njoroge,10,2,syringes 10ml,7058000
839,2018-07-05,OTCINV3367,William Njoroge,20,4,syringes 20ml,7058000
840,2018-07-05,OTCINV3367,William Njoroge,5,2,Syringes 5ml,7058000
841,2018-07-05,OTCINV3367,William Njoroge,2,2,Needle G23,7058000
842,2018-07-05,OTCINV3367,William Njoroge,4106,1,Dialysis Outpatient,7058000
843,2018-07-05,OTCINV3368,Tomdila Kipkoech,1200,1,Erythropoietin 4000 IU (EPOFIT),2463000
844,2018-07-05,OTCINV3368,Tomdila Kipkoech,500,1,Nipro / All types bloodlines,2463000
845,2018-07-05,OTCINV3368,Tomdila Kipkoech,450,1,Nipro Bicarbonate Catridge,2463000
846,2018-07-05,OTCINV3368,Tomdila Kipkoech,500,1,Nipro/ other  Acid Concentrate 5L,2463000
847,2018-07-05,OTCINV3368,Tomdila Kipkoech,1300,1,Nipro/All types Dialysers,2463000
848,2018-07-05,OTCINV3368,Tomdila Kipkoech,1000,1,Nursing,2463000
849,2018-07-05,OTCINV3368,Tomdila Kipkoech,100,2,Normal saline,2463000
850,2018-07-05,OTCINV3368,Tomdila Kipkoech,200,1,Consumables,2463000
851,2018-07-05,OTCINV3368,Tomdila Kipkoech,10,10,Clean Gloves,2463000
852,2018-07-05,OTCINV3368,Tomdila Kipkoech,130,1,Primapore ( LEUKOMED),2463000
853,2018-07-05,OTCINV3368,Tomdila Kipkoech,400,1,Food,2463000
854,2018-07-05,OTCINV3368,Tomdila Kipkoech,10,2,syringes 10ml,2463000
855,2018-07-05,OTCINV3368,Tomdila Kipkoech,20,3,syringes 20ml,2463000
856,2018-07-05,OTCINV3368,Tomdila Kipkoech,5,2,Syringes 5ml,2463000
857,2018-07-05,OTCINV3368,Tomdila Kipkoech,2,2,Needle G23,2463000
858,2018-07-05,OTCINV3368,Tomdila Kipkoech,3426,1,Dialysis Outpatient,2463000
859,2018-07-05,OTCINV3369,Joseph njuguna Kariuki,1200,1,Erythropoietin 4000 IU (EPOFIT),803000
860,2018-07-05,OTCINV3369,Joseph njuguna Kariuki,500,1,Nipro / All types bloodlines,803000
861,2018-07-05,OTCINV3369,Joseph njuguna Kariuki,450,1,Nipro Bicarbonate Catridge,803000
862,2018-07-05,OTCINV3369,Joseph njuguna Kariuki,500,1,Nipro/ other  Acid Concentrate 5L,803000
863,2018-07-05,OTCINV3369,Joseph njuguna Kariuki,1300,1,Nipro/All types Dialysers,803000
864,2018-07-05,OTCINV3369,Joseph njuguna Kariuki,1000,1,Nursing,803000
865,2018-07-05,OTCINV3369,Joseph njuguna Kariuki,200,1,Consumables,803000
866,2018-07-05,OTCINV3369,Joseph njuguna Kariuki,10,10,Clean Gloves,803000
867,2018-07-05,OTCINV3369,Joseph njuguna Kariuki,100,2,Normal saline,803000
868,2018-07-05,OTCINV3369,Joseph njuguna Kariuki,400,1,Food,803000
869,2018-07-05,OTCINV3369,Joseph njuguna Kariuki,130,1,Primapore ( LEUKOMED),803000
870,2018-07-05,OTCINV3369,Joseph njuguna Kariuki,10,2,syringes 10ml,803000
871,2018-07-05,OTCINV3369,Joseph njuguna Kariuki,20,4,syringes 20ml,803000
872,2018-07-05,OTCINV3369,Joseph njuguna Kariuki,5,2,Syringes 5ml,803000
873,2018-07-05,OTCINV3369,Joseph njuguna Kariuki,2,2,Needle G23,803000
874,2018-07-05,OTCINV3369,Joseph njuguna Kariuki,3406,1,Dialysis Outpatient,803000
875,2018-07-05,OTCINV3370,Ruth Nyegenye Peter,500,1,Nipro / All types bloodlines,76000
876,2018-07-05,OTCINV3370,Ruth Nyegenye Peter,450,1,Nipro Bicarbonate Catridge,76000
877,2018-07-05,OTCINV3370,Ruth Nyegenye Peter,500,1,Nipro/ other  Acid Concentrate 5L,76000
878,2018-07-05,OTCINV3370,Ruth Nyegenye Peter,1300,1,Nipro/All types Dialysers,76000
879,2018-07-05,OTCINV3370,Ruth Nyegenye Peter,1200,1,Erythropoietin 4000 IU (EPOFIT),76000
880,2018-07-05,OTCINV3370,Ruth Nyegenye Peter,1000,1,Nursing,76000
881,2018-07-05,OTCINV3370,Ruth Nyegenye Peter,100,2,Normal saline,76000
882,2018-07-05,OTCINV3370,Ruth Nyegenye Peter,200,1,Consumables,76000
883,2018-07-05,OTCINV3370,Ruth Nyegenye Peter,10,10,Clean Gloves,76000
884,2018-07-05,OTCINV3370,Ruth Nyegenye Peter,130,1,Primapore ( LEUKOMED),76000
885,2018-07-05,OTCINV3370,Ruth Nyegenye Peter,10,2,syringes 10ml,76000
886,2018-07-05,OTCINV3370,Ruth Nyegenye Peter,20,2,syringes 20ml,76000
887,2018-07-05,OTCINV3370,Ruth Nyegenye Peter,5,2,Syringes 5ml,76000
888,2018-07-05,OTCINV3370,Ruth Nyegenye Peter,2,2,Needle G23,76000
889,2018-07-05,OTCINV3370,Ruth Nyegenye Peter,10,1,Masks,76000
890,2018-07-05,OTCINV3370,Ruth Nyegenye Peter,10,1,Surgeon  Caps,76000
891,2018-07-05,OTCINV3370,Ruth Nyegenye Peter,3826,1,Dialysis Outpatient,76000
892,2018-07-05,OTCINV3371,Wilson Kimitei Kiptanui,2500,1,Consultation -  Dr. Koech,7802000
893,2018-07-05,OTCINV3371,Wilson Kimitei Kiptanui,90,30,Rosuvastatin Tabs ( CRESTOR) 10 mg,7802000
894,2018-07-05,OTCINV3371,Wilson Kimitei Kiptanui,75,30,Treviamet 50/500mg Tabs,7802000
895,2018-07-05,OTCINV3371,Wilson Kimitei Kiptanui,250,1,Random Blood Sugar (RBS),7802000
896,2018-07-05,OTCINV3371,Wilson Kimitei Kiptanui,5,1,Hydralazine Tabs 25mg,7802000
897,2018-07-06,OTCINV3372,Ezekiel Kiplangat Koskei,2000,1,Consultation -  Dr. Koech,81000
898,2018-07-06,OTCINV3373,Florence Athima Kawira,900,1,Full Blood Count (FBC),1315000
899,2018-07-06,OTCINV3373,Florence Athima Kawira,2000,1,Urea/Creatinine/Electrolytes(KFT),1315000
900,2018-07-06,OTCINV3373,Florence Athima Kawira,250,1,Urinalysis/microscopy,1315000
901,2018-07-06,OTCINV3373,Florence Athima Kawira,2000,1,Consultation-Review Dr Koech,1315000
902,2018-07-06,OTCINV3373,Florence Athima Kawira,2,60,Cotrimoxazole 480 mg loose,1315000
903,2018-07-06,OTCINV3373,Florence Athima Kawira,5,60,Prednisolone Tabs 5mg (BLISTERED),1315000
904,2018-07-06,OTCINV3373,Florence Athima Kawira,10,10,Masks,1315000
905,2018-07-06,OTCINV3374,Humprey Gakuru Kimunya,3500,1,Tacrolimus,1128000
906,2018-07-06,OTCINV3374,Humprey Gakuru Kimunya,900,1,Full Blood Count (FBC),1128000
907,2018-07-06,OTCINV3374,Humprey Gakuru Kimunya,2000,1,Urea/Creatinine/Electrolytes(KFT),1128000
908,2018-07-06,OTCINV3374,Humprey Gakuru Kimunya,250,1,Urinalysis/microscopy,1128000
909,2018-07-06,OTCINV3374,Humprey Gakuru Kimunya,2000,1,Consultation-Review Dr Koech,1128000
910,2018-07-06,OTCINV3375,Mathew Bundotich,900,1,Full Blood Count (FBC),6722000
911,2018-07-06,OTCINV3375,Mathew Bundotich,2000,1,Urea/Creatinine/Electrolytes(KFT),6722000
912,2018-07-06,OTCINV3375,Mathew Bundotich,250,1,Urinalysis/microscopy,6722000
913,2018-07-06,OTCINV3375,Mathew Bundotich,2000,1,Consultation-Review Dr Koech,6722000
914,2018-07-06,OTCINV3376,Baiya Mariko Suter,1200,1,Erythropoietin 4000 IU (EPOFIT),2486000
915,2018-07-06,OTCINV3376,Baiya Mariko Suter,500,1,Nipro / All types bloodlines,2486000
916,2018-07-06,OTCINV3376,Baiya Mariko Suter,450,1,Nipro Bicarbonate Catridge,2486000
917,2018-07-06,OTCINV3376,Baiya Mariko Suter,500,1,Nipro/ other  Acid Concentrate 5L,2486000
918,2018-07-06,OTCINV3376,Baiya Mariko Suter,1300,1,Nipro/All types Dialysers,2486000
919,2018-07-06,OTCINV3376,Baiya Mariko Suter,1000,1,Nursing,2486000
920,2018-07-06,OTCINV3376,Baiya Mariko Suter,100,2,Normal saline,2486000
921,2018-07-06,OTCINV3376,Baiya Mariko Suter,200,1,Consumables,2486000
922,2018-07-06,OTCINV3376,Baiya Mariko Suter,10,10,Clean Gloves,2486000
923,2018-07-06,OTCINV3376,Baiya Mariko Suter,130,1,Primapore ( LEUKOMED),2486000
924,2018-07-06,OTCINV3376,Baiya Mariko Suter,500,1,Food,2486000
925,2018-07-06,OTCINV3376,Baiya Mariko Suter,300,1,CitraLock 4% 5 ml vial,2486000
926,2018-07-06,OTCINV3376,Baiya Mariko Suter,3120,1,Dialysis Outpatient,2486000
927,2018-07-06,OTCINV3377,Agnes Jepngetich Rono,2000,1,Consultation -  Dr. Koech,2420000
928,2018-07-06,OTCINV3378,Hellen Njeri Kamau,500,1,Nipro / All types bloodlines,1489000
929,2018-07-06,OTCINV3378,Hellen Njeri Kamau,450,1,Nipro Bicarbonate Catridge,1489000
930,2018-07-06,OTCINV3378,Hellen Njeri Kamau,500,1,Nipro/ other  Acid Concentrate 5L,1489000
931,2018-07-06,OTCINV3378,Hellen Njeri Kamau,1300,1,Nipro/All types Dialysers,1489000
932,2018-07-06,OTCINV3378,Hellen Njeri Kamau,1000,1,Nursing,1489000
933,2018-07-06,OTCINV3378,Hellen Njeri Kamau,500,1,Food,1489000
934,2018-07-06,OTCINV3378,Hellen Njeri Kamau,200,1,Consumables,1489000
935,2018-07-06,OTCINV3378,Hellen Njeri Kamau,10,10,Clean Gloves,1489000
936,2018-07-06,OTCINV3378,Hellen Njeri Kamau,130,1,Primapore ( LEUKOMED),1489000
937,2018-07-06,OTCINV3378,Hellen Njeri Kamau,300,1,CitraLock 4% 5 ml vial,1489000
938,2018-07-06,OTCINV3378,Hellen Njeri Kamau,20,4,syringes 20ml,1489000
939,2018-07-06,OTCINV3378,Hellen Njeri Kamau,5,2,Syringes 5ml,1489000
940,2018-07-06,OTCINV3378,Hellen Njeri Kamau,2,2,Needle G23,1489000
941,2018-07-06,OTCINV3378,Hellen Njeri Kamau,4426,1,Dialysis Outpatient,1489000
942,2018-07-06,OTCINV3379,"Ngetich, Viola Chelagat",500,1,Nipro / All types bloodlines,2603000
943,2018-07-06,OTCINV3379,"Ngetich, Viola Chelagat",450,1,Nipro Bicarbonate Catridge,2603000
944,2018-07-06,OTCINV3379,"Ngetich, Viola Chelagat",500,1,Nipro/ other  Acid Concentrate 5L,2603000
945,2018-07-06,OTCINV3379,"Ngetich, Viola Chelagat",1300,1,Nipro/All types Dialysers,2603000
946,2018-07-06,OTCINV3379,"Ngetich, Viola Chelagat",1000,1,Nursing,2603000
947,2018-07-06,OTCINV3379,"Ngetich, Viola Chelagat",130,1,Primapore ( LEUKOMED),2603000
948,2018-07-06,OTCINV3379,"Ngetich, Viola Chelagat",200,1,Consumables,2603000
949,2018-07-06,OTCINV3379,"Ngetich, Viola Chelagat",10,10,Clean Gloves,2603000
950,2018-07-06,OTCINV3379,"Ngetich, Viola Chelagat",100,3,Normal saline,2603000
951,2018-07-06,OTCINV3379,"Ngetich, Viola Chelagat",500,1,Food,2603000
952,2018-07-06,OTCINV3379,"Ngetich, Viola Chelagat",300,1,CitraLock 4% 5 ml vial,2603000
953,2018-07-06,OTCINV3379,"Ngetich, Viola Chelagat",10,1,syringes 10ml,2603000
954,2018-07-06,OTCINV3379,"Ngetich, Viola Chelagat",20,4,syringes 20ml,2603000
955,2018-07-06,OTCINV3379,"Ngetich, Viola Chelagat",5,2,Syringes 5ml,2603000
956,2018-07-06,OTCINV3379,"Ngetich, Viola Chelagat",2,2,Needle G23,2603000
957,2018-07-06,OTCINV3379,"Ngetich, Viola Chelagat",4116,1,Dialysis Outpatient,2603000
958,2018-07-06,OTCINV3380,Ruth Wanjiku Waweru,500,1,Nipro / All types bloodlines,3763000
959,2018-07-06,OTCINV3380,Ruth Wanjiku Waweru,450,1,Nipro Bicarbonate Catridge,3763000
960,2018-07-06,OTCINV3380,Ruth Wanjiku Waweru,500,1,Nipro/ other  Acid Concentrate 5L,3763000
961,2018-07-06,OTCINV3380,Ruth Wanjiku Waweru,1300,1,Nipro/All types Dialysers,3763000
962,2018-07-06,OTCINV3380,Ruth Wanjiku Waweru,1000,1,Nursing,3763000
963,2018-07-06,OTCINV3380,Ruth Wanjiku Waweru,100,2,Normal saline,3763000
964,2018-07-06,OTCINV3380,Ruth Wanjiku Waweru,200,1,Consumables,3763000
965,2018-07-06,OTCINV3380,Ruth Wanjiku Waweru,300,1,CitraLock 4% 5 ml vial,3763000
966,2018-07-06,OTCINV3380,Ruth Wanjiku Waweru,400,1,Heparin 5000iu/ml I.M/I.V inj,3763000
967,2018-07-06,OTCINV3380,Ruth Wanjiku Waweru,500,1,Food,3763000
968,2018-07-06,OTCINV3380,Ruth Wanjiku Waweru,10,1,syringes 10ml,3763000
969,2018-07-06,OTCINV3380,Ruth Wanjiku Waweru,20,4,syringes 20ml,3763000
970,2018-07-06,OTCINV3380,Ruth Wanjiku Waweru,5,2,Syringes 5ml,3763000
971,2018-07-06,OTCINV3380,Ruth Wanjiku Waweru,2,2,Needle G23,3763000
972,2018-07-06,OTCINV3380,Ruth Wanjiku Waweru,100,1,Fistula Needles Pers,3763000
973,2018-07-06,OTCINV3380,Ruth Wanjiku Waweru,3946,1,Dialysis Outpatient,3763000
974,2018-07-06,OTCINV3381,Benard Kiprono Langat,500,1,Nipro / All types bloodlines,3015000
975,2018-07-06,OTCINV3381,Benard Kiprono Langat,450,1,Nipro Bicarbonate Catridge,3015000
976,2018-07-06,OTCINV3381,Benard Kiprono Langat,1300,1,Nipro/All types Dialysers,3015000
977,2018-07-06,OTCINV3381,Benard Kiprono Langat,500,1,Nipro/ other  Acid Concentrate 5L,3015000
978,2018-07-06,OTCINV3381,Benard Kiprono Langat,1000,1,Nursing,3015000
979,2018-07-06,OTCINV3381,Benard Kiprono Langat,100,3,Normal saline,3015000
980,2018-07-06,OTCINV3381,Benard Kiprono Langat,500,1,Food,3015000
981,2018-07-06,OTCINV3381,Benard Kiprono Langat,200,1,Consumables,3015000
982,2018-07-06,OTCINV3381,Benard Kiprono Langat,10,10,Clean Gloves,3015000
983,2018-07-06,OTCINV3381,Benard Kiprono Langat,130,1,Primapore ( LEUKOMED),3015000
984,2018-07-06,OTCINV3381,Benard Kiprono Langat,10,1,syringes 10ml,3015000
985,2018-07-06,OTCINV3381,Benard Kiprono Langat,20,4,syringes 20ml,3015000
986,2018-07-06,OTCINV3381,Benard Kiprono Langat,5,2,Syringes 5ml,3015000
987,2018-07-06,OTCINV3381,Benard Kiprono Langat,2,2,Needle G23,3015000
988,2018-07-06,OTCINV3381,Benard Kiprono Langat,4416,1,Dialysis Outpatient,3015000
989,2018-07-06,OTCINV3382,Stephen  Chepkwony,300,1,Perfusor syringe 50 ml,6197000
990,2018-07-06,OTCINV3383,Alexander Mathew Lopungurei,900,1,Full Blood Count (FBC),151000
991,2018-07-06,OTCINV3383,Alexander Mathew Lopungurei,2000,1,Urea/Creatinine/Electrolytes(KFT),151000
992,2018-07-06,OTCINV3383,Alexander Mathew Lopungurei,250,1,Urinalysis/microscopy,151000
993,2018-07-06,OTCINV3383,Alexander Mathew Lopungurei,2000,1,Consultation-Review Dr Koech,151000
994,2018-07-06,OTCINV3383,Alexander Mathew Lopungurei,24,30,Azathioprine Tabs 50mg,151000
995,2018-07-06,OTCINV3383,Alexander Mathew Lopungurei,5,30,Prednisolone Tabs 5mg (BLISTERED),151000
996,2018-07-06,OTCINV3384,Joel Chelimo,500,1,Nipro / All types bloodlines,1480000
997,2018-07-06,OTCINV3384,Joel Chelimo,450,1,Nipro Bicarbonate Catridge,1480000
998,2018-07-06,OTCINV3384,Joel Chelimo,500,1,Nipro/ other  Acid Concentrate 5L,1480000
999,2018-07-06,OTCINV3384,Joel Chelimo,1300,1,Nipro/All types Dialysers,1480000
1000,2018-07-06,OTCINV3384,Joel Chelimo,1000,1,Nursing,1480000
1001,2018-07-06,OTCINV3384,Joel Chelimo,100,2,Normal saline,1480000
1002,2018-07-06,OTCINV3384,Joel Chelimo,500,1,Food,1480000
1003,2018-07-06,OTCINV3384,Joel Chelimo,200,1,Consumables,1480000
1004,2018-07-06,OTCINV3384,Joel Chelimo,10,10,Clean Gloves,1480000
1005,2018-07-06,OTCINV3384,Joel Chelimo,130,1,Primapore ( LEUKOMED),1480000
1006,2018-07-06,OTCINV3384,Joel Chelimo,300,1,CitraLock 4% 5 ml vial,1480000
1007,2018-07-06,OTCINV3384,Joel Chelimo,10,1,syringes 10ml,1480000
1008,2018-07-06,OTCINV3384,Joel Chelimo,20,4,syringes 20ml,1480000
1009,2018-07-06,OTCINV3384,Joel Chelimo,5,2,Syringes 5ml,1480000
1010,2018-07-06,OTCINV3384,Joel Chelimo,2,2,Needle G23,1480000
1011,2018-07-06,OTCINV3384,Joel Chelimo,4216,1,Dialysis Outpatient,1480000
1012,2018-07-06,OTCINV3385,James Cheptoo Cherogony,85,30,Amtel 80/10 Tabs,3110000
1013,2018-07-06,OTCINV3386,Anneth chepkemoi Koech,120,15,Neurogame Tabs,7838000
1014,2018-07-06,OTCINV3386,Anneth chepkemoi Koech,25,18,Myospaz Tabs,7838000
1015,2018-07-06,OTCINV3387,Agnes Jepngetich Rono,1500,1,Consultation -  Dr. Koech,2420000
1016,2018-07-07,OTCINV3388,Florence Athima Kawira,70,28,Tacrolimus 1 mg Tabs ( VINGRAF),1315000
1017,2018-07-07,OTCINV3388,Florence Athima Kawira,130,6,Mycophenolate Mofetil Tab 500mg (Mycept),1315000
1018,2018-07-07,OTCINV3388,Florence Athima Kawira,126.66666,27,Mycophenolate Tabs 500mg ( MOFILET),1315000
1019,2018-07-07,OTCINV3389,Joseph Kiptoo Biwott,1500,1,Consultation Review - Dr. Kirui,6585000
1020,2018-07-07,OTCINV3389,Joseph Kiptoo Biwott,75,30,Treviamet 50/1000mg Tabs,6585000
1021,2018-07-07,OTCINV3389,Joseph Kiptoo Biwott,20,30,Metformin Tabs (Glucophage) 1000mg,6585000
1022,2018-07-07,OTCINV3390,Ann Katini Kiungu,9500,8,Dialysis Outpatient,3907000
1023,2018-07-07,OTCINV3391,Eugene Kola James,900,1,Full Blood Count (FBC),7855000
1024,2018-07-07,OTCINV3391,Eugene Kola James,2000,1,Glycocylated Haemoglobin (Hba1c),7855000
1025,2018-07-07,OTCINV3391,Eugene Kola James,2000,1,Urea/Creatinine/Electrolytes(KFT),7855000
1026,2018-07-07,OTCINV3391,Eugene Kola James,250,1,Urinalysis/microscopy,7855000
1027,2018-07-07,OTCINV3391,Eugene Kola James,500,1,Calcium Levels,7855000
1028,2018-07-07,OTCINV3391,Eugene Kola James,500,1,Phosphorus levels,7855000
1029,2018-07-07,OTCINV3391,Eugene Kola James,3500,1,Liver Funtion Test Full,7855000
1030,2018-07-07,OTCINV3391,Eugene Kola James,2000,1,PSA,7855000
1031,2018-07-07,OTCINV3391,Eugene Kola James,1500,1,TSH,7855000
1032,2018-07-07,OTCINV3391,Eugene Kola James,500,1,HIV Test,7855000
1033,2018-07-07,OTCINV3391,Eugene Kola James,500,1,Hepatitis BsAg - Rapid,7855000
1034,2018-07-07,OTCINV3391,Eugene Kola James,500,1,Hepatitis C Test - Rapid,7855000
1035,2018-07-07,OTCINV3391,Eugene Kola James,500,1,VDRL,7855000
1036,2018-07-07,OTCINV3391,Eugene Kola James,1000,1,Uric Acid Levels,7855000
1037,2018-07-07,OTCINV3391,Eugene Kola James,1000,1,Ldh,7855000
1038,2018-07-07,OTCINV3391,Eugene Kola James,2500,1,Urine Protein Creatine Ratio,7855000
1039,2018-07-07,OTCINV3391,Eugene Kola James,6000,1,Hb Eletrophroresis,7855000
1040,2018-07-07,OTCINV3391,Eugene Kola James,3000,1,G6PD,7855000
1041,2018-07-07,OTCINV3391,Eugene Kola James,5000,1,CMV IgG/IgM antibodies,7855000
1042,2018-07-07,OTCINV3391,Eugene Kola James,250,1,Blood grouping/Du test,7855000
1043,2018-07-07,OTCINV3391,Eugene Kola James,2000,1,Lipid profile:full,7855000
